# -------------------------------------------------------
# Free IP2Location Firewall List by Country
# Source: https://www.ip2location.com/free/visitor-blocker
# Last Generated: 25 Sep 2018 17:12:24 GMT
# [Important] Please update this list every month
# -------------------------------------------------------
iptables -A INPUT -s 1.32.202.0/25 -j DROP
iptables -A INPUT -s 1.32.203.0/25 -j DROP
iptables -A INPUT -s 1.32.204.0/25 -j DROP
iptables -A INPUT -s 1.32.208.0/21 -j DROP
iptables -A INPUT -s 1.34.0.0/15 -j DROP
iptables -A INPUT -s 1.160.0.0/13 -j DROP
iptables -A INPUT -s 1.168.0.0/14 -j DROP
iptables -A INPUT -s 1.172.0.0/15 -j DROP
iptables -A INPUT -s 1.174.0.0/17 -j DROP
iptables -A INPUT -s 1.174.128.0/18 -j DROP
iptables -A INPUT -s 1.174.192.0/21 -j DROP
iptables -A INPUT -s 1.174.200.0/22 -j DROP
iptables -A INPUT -s 1.174.204.0/23 -j DROP
iptables -A INPUT -s 1.174.206.0/24 -j DROP
iptables -A INPUT -s 1.174.208.0/20 -j DROP
iptables -A INPUT -s 1.174.224.0/19 -j DROP
iptables -A INPUT -s 1.175.0.0/16 -j DROP
iptables -A INPUT -s 1.200.0.0/16 -j DROP
iptables -A INPUT -s 23.41.128.0/20 -j DROP
iptables -A INPUT -s 23.48.128.0/20 -j DROP
iptables -A INPUT -s 23.48.148.0/23 -j DROP
iptables -A INPUT -s 23.49.112.0/20 -j DROP
iptables -A INPUT -s 23.53.64.0/20 -j DROP
iptables -A INPUT -s 23.61.204.0/24 -j DROP
iptables -A INPUT -s 23.61.246.0/24 -j DROP
iptables -A INPUT -s 23.65.80.0/20 -j DROP
iptables -A INPUT -s 23.202.122.0/23 -j DROP
iptables -A INPUT -s 23.202.124.0/22 -j DROP
iptables -A INPUT -s 23.205.113.0/24 -j DROP
iptables -A INPUT -s 23.205.114.0/24 -j DROP
iptables -A INPUT -s 23.205.172.0/23 -j DROP
iptables -A INPUT -s 23.210.215.0/24 -j DROP
iptables -A INPUT -s 23.212.60.0/24 -j DROP
iptables -A INPUT -s 23.219.32.0/22 -j DROP
iptables -A INPUT -s 23.236.103.0/27 -j DROP
iptables -A INPUT -s 23.236.104.0/27 -j DROP
iptables -A INPUT -s 23.236.104.32/28 -j DROP
iptables -A INPUT -s 23.248.176.0/23 -j DROP
iptables -A INPUT -s 27.0.152.0/22 -j DROP
iptables -A INPUT -s 27.50.36.129/32 -j DROP
iptables -A INPUT -s 27.50.36.130/32 -j DROP
iptables -A INPUT -s 27.50.36.145/32 -j DROP
iptables -A INPUT -s 27.50.36.161/32 -j DROP
iptables -A INPUT -s 27.50.36.169/32 -j DROP
iptables -A INPUT -s 27.50.36.170/32 -j DROP
iptables -A INPUT -s 27.51.0.0/16 -j DROP
iptables -A INPUT -s 27.52.0.0/15 -j DROP
iptables -A INPUT -s 27.96.224.0/19 -j DROP
iptables -A INPUT -s 27.100.19.0/24 -j DROP
iptables -A INPUT -s 27.100.64.0/18 -j DROP
iptables -A INPUT -s 27.105.0.0/16 -j DROP
iptables -A INPUT -s 27.123.40.8/30 -j DROP
iptables -A INPUT -s 27.123.40.12/32 -j DROP
iptables -A INPUT -s 27.123.40.16/31 -j DROP
iptables -A INPUT -s 27.123.40.18/32 -j DROP
iptables -A INPUT -s 27.123.48.0/22 -j DROP
iptables -A INPUT -s 27.123.198.0/23 -j DROP
iptables -A INPUT -s 27.123.200.0/21 -j DROP
iptables -A INPUT -s 27.147.0.0/18 -j DROP
iptables -A INPUT -s 27.240.0.0/13 -j DROP
iptables -A INPUT -s 31.13.24.50/32 -j DROP
iptables -A INPUT -s 31.13.25.112/31 -j DROP
iptables -A INPUT -s 31.13.31.18/31 -j DROP
iptables -A INPUT -s 31.13.31.60/30 -j DROP
iptables -A INPUT -s 31.13.31.68/30 -j DROP
iptables -A INPUT -s 31.13.31.72/30 -j DROP
iptables -A INPUT -s 31.13.87.1/32 -j DROP
iptables -A INPUT -s 31.13.87.2/31 -j DROP
iptables -A INPUT -s 31.13.87.5/32 -j DROP
iptables -A INPUT -s 31.13.87.6/31 -j DROP
iptables -A INPUT -s 31.13.87.8/31 -j DROP
iptables -A INPUT -s 31.13.87.10/32 -j DROP
iptables -A INPUT -s 31.13.87.13/32 -j DROP
iptables -A INPUT -s 31.13.87.15/32 -j DROP
iptables -A INPUT -s 31.13.87.16/31 -j DROP
iptables -A INPUT -s 31.13.87.19/32 -j DROP
iptables -A INPUT -s 31.13.87.20/31 -j DROP
iptables -A INPUT -s 31.13.87.23/32 -j DROP
iptables -A INPUT -s 31.13.87.25/32 -j DROP
iptables -A INPUT -s 31.13.87.26/32 -j DROP
iptables -A INPUT -s 31.13.87.28/32 -j DROP
iptables -A INPUT -s 31.13.87.32/30 -j DROP
iptables -A INPUT -s 31.13.87.36/31 -j DROP
iptables -A INPUT -s 31.13.87.38/32 -j DROP
iptables -A INPUT -s 31.13.87.40/31 -j DROP
iptables -A INPUT -s 31.13.87.48/30 -j DROP
iptables -A INPUT -s 31.13.87.52/31 -j DROP
iptables -A INPUT -s 31.13.87.54/32 -j DROP
iptables -A INPUT -s 31.13.87.169/32 -j DROP
iptables -A INPUT -s 31.13.87.170/31 -j DROP
iptables -A INPUT -s 36.224.0.0/12 -j DROP
iptables -A INPUT -s 36.255.96.0/24 -j DROP
iptables -A INPUT -s 37.252.243.0/24 -j DROP
iptables -A INPUT -s 39.1.0.0/16 -j DROP
iptables -A INPUT -s 39.8.0.0/13 -j DROP
iptables -A INPUT -s 42.0.64.0/18 -j DROP
iptables -A INPUT -s 42.64.0.0/12 -j DROP
iptables -A INPUT -s 42.99.167.0/24 -j DROP
iptables -A INPUT -s 42.99.216.0/23 -j DROP
iptables -A INPUT -s 43.224.20.0/22 -j DROP
iptables -A INPUT -s 43.224.249.0/24 -j DROP
iptables -A INPUT -s 43.226.232.0/22 -j DROP
iptables -A INPUT -s 43.227.24.0/22 -j DROP
iptables -A INPUT -s 43.240.24.0/22 -j DROP
iptables -A INPUT -s 43.240.44.0/22 -j DROP
iptables -A INPUT -s 43.240.104.0/21 -j DROP
iptables -A INPUT -s 43.240.152.0/22 -j DROP
iptables -A INPUT -s 43.241.32.0/22 -j DROP
iptables -A INPUT -s 43.241.160.0/22 -j DROP
iptables -A INPUT -s 43.243.252.0/22 -j DROP
iptables -A INPUT -s 43.245.223.0/24 -j DROP
iptables -A INPUT -s 43.246.188.0/22 -j DROP
iptables -A INPUT -s 43.246.216.0/22 -j DROP
iptables -A INPUT -s 43.248.16.0/22 -j DROP
iptables -A INPUT -s 43.249.212.0/23 -j DROP
iptables -A INPUT -s 43.249.214.0/24 -j DROP
iptables -A INPUT -s 43.250.44.0/22 -j DROP
iptables -A INPUT -s 43.251.56.0/21 -j DROP
iptables -A INPUT -s 43.254.16.0/22 -j DROP
iptables -A INPUT -s 43.254.60.0/22 -j DROP
iptables -A INPUT -s 43.254.197.0/24 -j DROP
iptables -A INPUT -s 43.254.198.0/24 -j DROP
iptables -A INPUT -s 43.255.12.0/22 -j DROP
iptables -A INPUT -s 43.255.88.0/21 -j DROP
iptables -A INPUT -s 43.255.180.0/22 -j DROP
iptables -A INPUT -s 45.43.36.0/22 -j DROP
iptables -A INPUT -s 45.64.28.0/22 -j DROP
iptables -A INPUT -s 45.64.32.0/22 -j DROP
iptables -A INPUT -s 45.64.228.0/22 -j DROP
iptables -A INPUT -s 45.64.232.0/22 -j DROP
iptables -A INPUT -s 45.113.156.0/22 -j DROP
iptables -A INPUT -s 45.116.168.0/23 -j DROP
iptables -A INPUT -s 45.116.177.0/24 -j DROP
iptables -A INPUT -s 45.120.201.0/24 -j DROP
iptables -A INPUT -s 45.121.48.0/22 -j DROP
iptables -A INPUT -s 45.121.180.0/24 -j DROP
iptables -A INPUT -s 45.254.255.0/24 -j DROP
iptables -A INPUT -s 47.89.64.0/24 -j DROP
iptables -A INPUT -s 49.128.112.0/20 -j DROP
iptables -A INPUT -s 49.158.0.0/15 -j DROP
iptables -A INPUT -s 49.213.128.0/17 -j DROP
iptables -A INPUT -s 49.214.0.0/15 -j DROP
iptables -A INPUT -s 49.216.0.0/14 -j DROP
iptables -A INPUT -s 50.225.62.89/32 -j DROP
iptables -A INPUT -s 50.225.62.90/32 -j DROP
iptables -A INPUT -s 52.84.200.0/22 -j DROP
iptables -A INPUT -s 52.84.204.0/23 -j DROP
iptables -A INPUT -s 54.192.212.0/22 -j DROP
iptables -A INPUT -s 54.230.212.0/22 -j DROP
iptables -A INPUT -s 54.239.176.0/23 -j DROP
iptables -A INPUT -s 54.239.179.0/24 -j DROP
iptables -A INPUT -s 57.73.160.0/19 -j DROP
iptables -A INPUT -s 58.86.0.0/16 -j DROP
iptables -A INPUT -s 58.99.0.0/17 -j DROP
iptables -A INPUT -s 58.114.0.0/15 -j DROP
iptables -A INPUT -s 59.102.128.0/17 -j DROP
iptables -A INPUT -s 59.104.0.0/15 -j DROP
iptables -A INPUT -s 59.112.0.0/12 -j DROP
iptables -A INPUT -s 60.198.0.0/15 -j DROP
iptables -A INPUT -s 60.244.0.0/16 -j DROP
iptables -A INPUT -s 60.245.0.0/17 -j DROP
iptables -A INPUT -s 60.248.0.0/14 -j DROP
iptables -A INPUT -s 61.8.34.24/29 -j DROP
iptables -A INPUT -s 61.8.34.208/28 -j DROP
iptables -A INPUT -s 61.8.37.24/29 -j DROP
iptables -A INPUT -s 61.8.37.40/29 -j DROP
iptables -A INPUT -s 61.8.37.48/29 -j DROP
iptables -A INPUT -s 61.8.37.64/26 -j DROP
iptables -A INPUT -s 61.8.37.224/27 -j DROP
iptables -A INPUT -s 61.14.132.48/29 -j DROP
iptables -A INPUT -s 61.14.132.128/26 -j DROP
iptables -A INPUT -s 61.14.133.48/28 -j DROP
iptables -A INPUT -s 61.14.133.104/29 -j DROP
iptables -A INPUT -s 61.14.133.112/28 -j DROP
iptables -A INPUT -s 61.14.133.128/26 -j DROP
iptables -A INPUT -s 61.14.133.240/28 -j DROP
iptables -A INPUT -s 61.14.150.0/23 -j DROP
iptables -A INPUT -s 61.14.152.224/27 -j DROP
iptables -A INPUT -s 61.14.153.64/27 -j DROP
iptables -A INPUT -s 61.14.154.128/26 -j DROP
iptables -A INPUT -s 61.14.154.192/27 -j DROP
iptables -A INPUT -s 61.14.155.0/27 -j DROP
iptables -A INPUT -s 61.14.156.9/32 -j DROP
iptables -A INPUT -s 61.14.156.10/32 -j DROP
iptables -A INPUT -s 61.14.156.71/32 -j DROP
iptables -A INPUT -s 61.14.156.195/32 -j DROP
iptables -A INPUT -s 61.14.164.0/23 -j DROP
iptables -A INPUT -s 61.14.172.0/24 -j DROP
iptables -A INPUT -s 61.14.176.0/25 -j DROP
iptables -A INPUT -s 61.14.176.128/28 -j DROP
iptables -A INPUT -s 61.14.176.192/28 -j DROP
iptables -A INPUT -s 61.14.177.40/29 -j DROP
iptables -A INPUT -s 61.14.177.128/27 -j DROP
iptables -A INPUT -s 61.14.177.160/28 -j DROP
iptables -A INPUT -s 61.14.177.240/28 -j DROP
iptables -A INPUT -s 61.14.179.0/25 -j DROP
iptables -A INPUT -s 61.14.179.192/27 -j DROP
iptables -A INPUT -s 61.14.180.0/25 -j DROP
iptables -A INPUT -s 61.14.181.96/27 -j DROP
iptables -A INPUT -s 61.14.181.192/26 -j DROP
iptables -A INPUT -s 61.14.188.0/25 -j DROP
iptables -A INPUT -s 61.14.188.128/26 -j DROP
iptables -A INPUT -s 61.14.189.64/26 -j DROP
iptables -A INPUT -s 61.14.189.208/28 -j DROP
iptables -A INPUT -s 61.14.189.240/28 -j DROP
iptables -A INPUT -s 61.14.190.0/25 -j DROP
iptables -A INPUT -s 61.14.190.144/28 -j DROP
iptables -A INPUT -s 61.14.190.192/26 -j DROP
iptables -A INPUT -s 61.14.191.48/28 -j DROP
iptables -A INPUT -s 61.14.191.64/26 -j DROP
iptables -A INPUT -s 61.14.191.128/27 -j DROP
iptables -A INPUT -s 61.14.191.192/28 -j DROP
iptables -A INPUT -s 61.20.0.0/16 -j DROP
iptables -A INPUT -s 61.30.0.0/15 -j DROP
iptables -A INPUT -s 61.56.0.0/15 -j DROP
iptables -A INPUT -s 61.58.0.0/19 -j DROP
iptables -A INPUT -s 61.58.32.0/22 -j DROP
iptables -A INPUT -s 61.58.41.0/24 -j DROP
iptables -A INPUT -s 61.58.44.0/24 -j DROP
iptables -A INPUT -s 61.58.46.0/24 -j DROP
iptables -A INPUT -s 61.58.48.0/20 -j DROP
iptables -A INPUT -s 61.58.64.0/18 -j DROP
iptables -A INPUT -s 61.58.128.0/17 -j DROP
iptables -A INPUT -s 61.59.0.0/16 -j DROP
iptables -A INPUT -s 61.60.0.0/14 -j DROP
iptables -A INPUT -s 61.64.0.0/14 -j DROP
iptables -A INPUT -s 61.70.0.0/15 -j DROP
iptables -A INPUT -s 61.213.147.128/25 -j DROP
iptables -A INPUT -s 61.216.0.0/18 -j DROP
iptables -A INPUT -s 61.216.64.0/19 -j DROP
iptables -A INPUT -s 61.216.96.0/23 -j DROP
iptables -A INPUT -s 61.216.98.0/24 -j DROP
iptables -A INPUT -s 61.216.99.0/25 -j DROP
iptables -A INPUT -s 61.216.99.128/26 -j DROP
iptables -A INPUT -s 61.216.99.192/29 -j DROP
iptables -A INPUT -s 61.216.99.200/30 -j DROP
iptables -A INPUT -s 61.216.99.208/28 -j DROP
iptables -A INPUT -s 61.216.99.224/27 -j DROP
iptables -A INPUT -s 61.216.100.0/22 -j DROP
iptables -A INPUT -s 61.216.104.0/21 -j DROP
iptables -A INPUT -s 61.216.112.0/20 -j DROP
iptables -A INPUT -s 61.216.128.0/17 -j DROP
iptables -A INPUT -s 61.217.0.0/16 -j DROP
iptables -A INPUT -s 61.218.0.0/15 -j DROP
iptables -A INPUT -s 61.220.0.0/14 -j DROP
iptables -A INPUT -s 61.224.0.0/13 -j DROP
iptables -A INPUT -s 61.247.160.0/20 -j DROP
iptables -A INPUT -s 62.115.123.64/31 -j DROP
iptables -A INPUT -s 62.115.124.83/32 -j DROP
iptables -A INPUT -s 62.115.124.85/32 -j DROP
iptables -A INPUT -s 62.216.128.33/32 -j DROP
iptables -A INPUT -s 62.216.128.42/32 -j DROP
iptables -A INPUT -s 62.216.128.181/32 -j DROP
iptables -A INPUT -s 62.216.128.182/32 -j DROP
iptables -A INPUT -s 62.216.128.226/32 -j DROP
iptables -A INPUT -s 62.216.128.233/32 -j DROP
iptables -A INPUT -s 62.216.129.129/32 -j DROP
iptables -A INPUT -s 62.216.136.130/32 -j DROP
iptables -A INPUT -s 62.216.136.132/32 -j DROP
iptables -A INPUT -s 62.216.145.53/32 -j DROP
iptables -A INPUT -s 62.216.145.105/32 -j DROP
iptables -A INPUT -s 62.216.145.177/32 -j DROP
iptables -A INPUT -s 62.216.145.181/32 -j DROP
iptables -A INPUT -s 62.216.146.101/32 -j DROP
iptables -A INPUT -s 62.216.146.117/32 -j DROP
iptables -A INPUT -s 62.216.146.245/32 -j DROP
iptables -A INPUT -s 62.216.147.117/32 -j DROP
iptables -A INPUT -s 62.216.147.121/32 -j DROP
iptables -A INPUT -s 62.216.147.173/32 -j DROP
iptables -A INPUT -s 62.216.150.32/28 -j DROP
iptables -A INPUT -s 63.218.17.32/29 -j DROP
iptables -A INPUT -s 63.222.54.144/28 -j DROP
iptables -A INPUT -s 63.234.136.248/29 -j DROP
iptables -A INPUT -s 63.243.175.224/27 -j DROP
iptables -A INPUT -s 64.209.221.96/28 -j DROP
iptables -A INPUT -s 64.214.181.0/24 -j DROP
iptables -A INPUT -s 65.110.40.120/29 -j DROP
iptables -A INPUT -s 65.110.40.128/31 -j DROP
iptables -A INPUT -s 65.152.119.48/29 -j DROP
iptables -A INPUT -s 65.152.134.120/29 -j DROP
iptables -A INPUT -s 65.244.90.24/29 -j DROP
iptables -A INPUT -s 66.110.10.183/32 -j DROP
iptables -A INPUT -s 66.118.138.144/28 -j DROP
iptables -A INPUT -s 66.196.40.144/28 -j DROP
iptables -A INPUT -s 67.16.131.242/32 -j DROP
iptables -A INPUT -s 67.16.131.244/32 -j DROP
iptables -A INPUT -s 67.16.144.118/32 -j DROP
iptables -A INPUT -s 67.16.148.185/32 -j DROP
iptables -A INPUT -s 67.16.148.186/32 -j DROP
iptables -A INPUT -s 67.16.158.122/32 -j DROP
iptables -A INPUT -s 67.16.158.129/32 -j DROP
iptables -A INPUT -s 67.16.158.130/31 -j DROP
iptables -A INPUT -s 67.16.158.233/32 -j DROP
iptables -A INPUT -s 67.16.158.234/32 -j DROP
iptables -A INPUT -s 67.16.172.58/32 -j DROP
iptables -A INPUT -s 67.17.82.48/32 -j DROP
iptables -A INPUT -s 67.17.98.69/32 -j DROP
iptables -A INPUT -s 67.17.98.70/32 -j DROP
iptables -A INPUT -s 67.17.99.5/32 -j DROP
iptables -A INPUT -s 67.17.99.6/32 -j DROP
iptables -A INPUT -s 67.17.100.57/32 -j DROP
iptables -A INPUT -s 67.17.100.58/32 -j DROP
iptables -A INPUT -s 67.17.100.64/31 -j DROP
iptables -A INPUT -s 67.17.111.249/32 -j DROP
iptables -A INPUT -s 67.17.111.250/32 -j DROP
iptables -A INPUT -s 69.24.248.128/28 -j DROP
iptables -A INPUT -s 69.174.123.160/29 -j DROP
iptables -A INPUT -s 72.14.230.40/29 -j DROP
iptables -A INPUT -s 72.14.231.40/29 -j DROP
iptables -A INPUT -s 74.120.120.0/22 -j DROP
iptables -A INPUT -s 74.122.160.56/29 -j DROP
iptables -A INPUT -s 74.125.41.0/24 -j DROP
iptables -A INPUT -s 77.67.84.0/24 -j DROP
iptables -A INPUT -s 80.66.128.18/31 -j DROP
iptables -A INPUT -s 80.66.137.1/32 -j DROP
iptables -A INPUT -s 80.66.137.5/32 -j DROP
iptables -A INPUT -s 80.66.137.9/32 -j DROP
iptables -A INPUT -s 80.66.137.13/32 -j DROP
iptables -A INPUT -s 80.66.137.17/32 -j DROP
iptables -A INPUT -s 80.66.137.21/32 -j DROP
iptables -A INPUT -s 80.66.137.29/32 -j DROP
iptables -A INPUT -s 80.66.137.33/32 -j DROP
iptables -A INPUT -s 80.66.137.37/32 -j DROP
iptables -A INPUT -s 80.66.137.41/32 -j DROP
iptables -A INPUT -s 80.66.137.45/32 -j DROP
iptables -A INPUT -s 80.66.137.49/32 -j DROP
iptables -A INPUT -s 80.66.137.53/32 -j DROP
iptables -A INPUT -s 80.66.137.57/32 -j DROP
iptables -A INPUT -s 80.66.137.61/32 -j DROP
iptables -A INPUT -s 80.66.137.65/32 -j DROP
iptables -A INPUT -s 80.77.0.69/32 -j DROP
iptables -A INPUT -s 80.77.0.85/32 -j DROP
iptables -A INPUT -s 80.77.0.137/32 -j DROP
iptables -A INPUT -s 80.77.1.242/32 -j DROP
iptables -A INPUT -s 80.91.240.2/31 -j DROP
iptables -A INPUT -s 80.91.240.21/32 -j DROP
iptables -A INPUT -s 85.95.25.206/32 -j DROP
iptables -A INPUT -s 85.95.25.208/32 -j DROP
iptables -A INPUT -s 85.95.25.210/32 -j DROP
iptables -A INPUT -s 85.95.25.241/32 -j DROP
iptables -A INPUT -s 85.95.26.122/32 -j DROP
iptables -A INPUT -s 85.95.27.82/32 -j DROP
iptables -A INPUT -s 85.95.27.102/32 -j DROP
iptables -A INPUT -s 85.95.27.133/32 -j DROP
iptables -A INPUT -s 85.95.27.153/32 -j DROP
iptables -A INPUT -s 85.95.27.158/32 -j DROP
iptables -A INPUT -s 85.95.27.177/32 -j DROP
iptables -A INPUT -s 96.17.0.0/22 -j DROP
iptables -A INPUT -s 101.0.128.0/17 -j DROP
iptables -A INPUT -s 101.3.0.0/16 -j DROP
iptables -A INPUT -s 101.8.0.0/13 -j DROP
iptables -A INPUT -s 101.101.101.0/24 -j DROP
iptables -A INPUT -s 101.102.103.0/24 -j DROP
iptables -A INPUT -s 101.136.0.0/14 -j DROP
iptables -A INPUT -s 103.1.220.0/22 -j DROP
iptables -A INPUT -s 103.2.216.0/22 -j DROP
iptables -A INPUT -s 103.3.192.0/22 -j DROP
iptables -A INPUT -s 103.4.96.84/31 -j DROP
iptables -A INPUT -s 103.4.96.186/31 -j DROP
iptables -A INPUT -s 103.4.97.38/31 -j DROP
iptables -A INPUT -s 103.4.97.52/31 -j DROP
iptables -A INPUT -s 103.4.97.182/31 -j DROP
iptables -A INPUT -s 103.4.97.210/31 -j DROP
iptables -A INPUT -s 103.4.98.2/31 -j DROP
iptables -A INPUT -s 103.4.104.255/32 -j DROP
iptables -A INPUT -s 103.4.105.255/32 -j DROP
iptables -A INPUT -s 103.4.106.0/23 -j DROP
iptables -A INPUT -s 103.5.32.0/22 -j DROP
iptables -A INPUT -s 103.5.44.0/22 -j DROP
iptables -A INPUT -s 103.5.100.0/22 -j DROP
iptables -A INPUT -s 103.8.104.0/22 -j DROP
iptables -A INPUT -s 103.9.116.0/22 -j DROP
iptables -A INPUT -s 103.10.4.0/22 -j DROP
iptables -A INPUT -s 103.11.36.0/23 -j DROP
iptables -A INPUT -s 103.16.240.0/21 -j DROP
iptables -A INPUT -s 103.17.8.0/22 -j DROP
iptables -A INPUT -s 103.17.95.0/24 -j DROP
iptables -A INPUT -s 103.17.240.0/22 -j DROP
iptables -A INPUT -s 103.18.128.0/22 -j DROP
iptables -A INPUT -s 103.20.40.0/22 -j DROP
iptables -A INPUT -s 103.20.176.0/22 -j DROP
iptables -A INPUT -s 103.21.60.0/22 -j DROP
iptables -A INPUT -s 103.21.196.0/22 -j DROP
iptables -A INPUT -s 103.22.156.0/22 -j DROP
iptables -A INPUT -s 103.22.212.0/22 -j DROP
iptables -A INPUT -s 103.23.108.0/22 -j DROP
iptables -A INPUT -s 103.24.100.0/22 -j DROP
iptables -A INPUT -s 103.25.232.0/21 -j DROP
iptables -A INPUT -s 103.28.200.0/23 -j DROP
iptables -A INPUT -s 103.30.44.0/22 -j DROP
iptables -A INPUT -s 103.30.128.0/21 -j DROP
iptables -A INPUT -s 103.31.4.0/24 -j DROP
iptables -A INPUT -s 103.31.196.0/22 -j DROP
iptables -A INPUT -s 103.35.204.0/22 -j DROP
iptables -A INPUT -s 103.36.116.0/22 -j DROP
iptables -A INPUT -s 103.37.36.0/22 -j DROP
iptables -A INPUT -s 103.38.146.0/23 -j DROP
iptables -A INPUT -s 103.42.144.0/21 -j DROP
iptables -A INPUT -s 103.43.48.0/22 -j DROP
iptables -A INPUT -s 103.46.144.0/22 -j DROP
iptables -A INPUT -s 103.46.188.0/22 -j DROP
iptables -A INPUT -s 103.47.26.0/24 -j DROP
iptables -A INPUT -s 103.49.133.0/24 -j DROP
iptables -A INPUT -s 103.51.140.0/23 -j DROP
iptables -A INPUT -s 103.59.220.0/22 -j DROP
iptables -A INPUT -s 103.61.136.0/22 -j DROP
iptables -A INPUT -s 103.67.204.0/22 -j DROP
iptables -A INPUT -s 103.67.227.0/24 -j DROP
iptables -A INPUT -s 103.68.138.0/24 -j DROP
iptables -A INPUT -s 103.69.204.0/23 -j DROP
iptables -A INPUT -s 103.70.52.0/22 -j DROP
iptables -A INPUT -s 103.71.140.0/22 -j DROP
iptables -A INPUT -s 103.81.128.0/24 -j DROP
iptables -A INPUT -s 103.81.185.0/24 -j DROP
iptables -A INPUT -s 103.89.20.0/22 -j DROP
iptables -A INPUT -s 103.95.44.0/22 -j DROP
iptables -A INPUT -s 103.97.48.0/22 -j DROP
iptables -A INPUT -s 103.97.156.0/22 -j DROP
iptables -A INPUT -s 103.98.16.0/23 -j DROP
iptables -A INPUT -s 103.98.72.0/22 -j DROP
iptables -A INPUT -s 103.99.88.0/22 -j DROP
iptables -A INPUT -s 103.99.228.0/24 -j DROP
iptables -A INPUT -s 103.100.124.0/22 -j DROP
iptables -A INPUT -s 103.100.164.0/22 -j DROP
iptables -A INPUT -s 103.103.80.0/22 -j DROP
iptables -A INPUT -s 103.103.128.0/22 -j DROP
iptables -A INPUT -s 103.104.148.0/22 -j DROP
iptables -A INPUT -s 103.105.134.0/24 -j DROP
iptables -A INPUT -s 103.105.212.128/30 -j DROP
iptables -A INPUT -s 103.106.52.0/22 -j DROP
iptables -A INPUT -s 103.112.48.0/22 -j DROP
iptables -A INPUT -s 103.113.240.0/22 -j DROP
iptables -A INPUT -s 103.114.133.0/24 -j DROP
iptables -A INPUT -s 103.116.8.0/22 -j DROP
iptables -A INPUT -s 103.116.68.0/22 -j DROP
iptables -A INPUT -s 103.116.96.0/22 -j DROP
iptables -A INPUT -s 103.117.4.0/22 -j DROP
iptables -A INPUT -s 103.117.40.0/22 -j DROP
iptables -A INPUT -s 103.117.106.0/24 -j DROP
iptables -A INPUT -s 103.117.112.0/22 -j DROP
iptables -A INPUT -s 103.117.224.0/22 -j DROP
iptables -A INPUT -s 103.118.24.0/21 -j DROP
iptables -A INPUT -s 103.118.148.0/22 -j DROP
iptables -A INPUT -s 103.119.212.0/22 -j DROP
iptables -A INPUT -s 103.120.148.0/22 -j DROP
iptables -A INPUT -s 103.196.172.0/22 -j DROP
iptables -A INPUT -s 103.197.172.0/22 -j DROP
iptables -A INPUT -s 103.200.0.0/22 -j DROP
iptables -A INPUT -s 103.202.218.0/24 -j DROP
iptables -A INPUT -s 103.206.120.0/24 -j DROP
iptables -A INPUT -s 103.207.252.0/22 -j DROP
iptables -A INPUT -s 103.208.196.0/23 -j DROP
iptables -A INPUT -s 103.222.248.0/22 -j DROP
iptables -A INPUT -s 103.224.132.0/22 -j DROP
iptables -A INPUT -s 103.224.192.0/22 -j DROP
iptables -A INPUT -s 103.224.200.0/21 -j DROP
iptables -A INPUT -s 103.225.0.0/22 -j DROP
iptables -A INPUT -s 103.226.100.0/22 -j DROP
iptables -A INPUT -s 103.226.212.0/22 -j DROP
iptables -A INPUT -s 103.227.32.0/22 -j DROP
iptables -A INPUT -s 103.227.224.0/22 -j DROP
iptables -A INPUT -s 103.228.216.0/22 -j DROP
iptables -A INPUT -s 103.229.16.0/23 -j DROP
iptables -A INPUT -s 103.229.50.0/24 -j DROP
iptables -A INPUT -s 103.229.100.0/22 -j DROP
iptables -A INPUT -s 103.229.132.0/22 -j DROP
iptables -A INPUT -s 103.231.48.0/22 -j DROP
iptables -A INPUT -s 103.233.68.0/22 -j DROP
iptables -A INPUT -s 103.234.40.0/22 -j DROP
iptables -A INPUT -s 103.234.76.0/22 -j DROP
iptables -A INPUT -s 103.234.80.0/22 -j DROP
iptables -A INPUT -s 103.234.204.0/22 -j DROP
iptables -A INPUT -s 103.234.224.0/21 -j DROP
iptables -A INPUT -s 103.235.88.0/22 -j DROP
iptables -A INPUT -s 103.236.103.0/24 -j DROP
iptables -A INPUT -s 103.239.60.0/22 -j DROP
iptables -A INPUT -s 103.241.68.0/22 -j DROP
iptables -A INPUT -s 103.243.248.0/22 -j DROP
iptables -A INPUT -s 103.246.208.0/22 -j DROP
iptables -A INPUT -s 103.246.218.0/23 -j DROP
iptables -A INPUT -s 103.247.112.0/22 -j DROP
iptables -A INPUT -s 103.248.133.0/24 -j DROP
iptables -A INPUT -s 103.249.160.0/22 -j DROP
iptables -A INPUT -s 103.252.68.0/22 -j DROP
iptables -A INPUT -s 103.252.128.0/22 -j DROP
iptables -A INPUT -s 103.252.196.0/22 -j DROP
iptables -A INPUT -s 103.252.244.0/24 -j DROP
iptables -A INPUT -s 103.253.184.0/22 -j DROP
iptables -A INPUT -s 104.44.226.114/31 -j DROP
iptables -A INPUT -s 104.44.226.118/32 -j DROP
iptables -A INPUT -s 104.66.128.0/19 -j DROP
iptables -A INPUT -s 104.76.192.0/24 -j DROP
iptables -A INPUT -s 104.77.93.0/24 -j DROP
iptables -A INPUT -s 104.77.94.0/23 -j DROP
iptables -A INPUT -s 104.107.54.0/23 -j DROP
iptables -A INPUT -s 104.107.56.0/22 -j DROP
iptables -A INPUT -s 104.107.64.0/19 -j DROP
iptables -A INPUT -s 104.115.168.0/21 -j DROP
iptables -A INPUT -s 104.115.208.0/20 -j DROP
iptables -A INPUT -s 104.115.224.0/19 -j DROP
iptables -A INPUT -s 104.116.0.0/20 -j DROP
iptables -A INPUT -s 104.116.16.0/22 -j DROP
iptables -A INPUT -s 104.116.243.0/24 -j DROP
iptables -A INPUT -s 104.123.220.0/22 -j DROP
iptables -A INPUT -s 104.124.16.0/20 -j DROP
iptables -A INPUT -s 104.124.32.0/20 -j DROP
iptables -A INPUT -s 104.124.48.0/23 -j DROP
iptables -A INPUT -s 104.124.188.0/22 -j DROP
iptables -A INPUT -s 104.124.224.0/19 -j DROP
iptables -A INPUT -s 104.125.0.0/23 -j DROP
iptables -A INPUT -s 104.132.150.0/24 -j DROP
iptables -A INPUT -s 104.132.193.0/24 -j DROP
iptables -A INPUT -s 104.132.194.0/24 -j DROP
iptables -A INPUT -s 104.132.213.0/24 -j DROP
iptables -A INPUT -s 104.132.239.0/24 -j DROP
iptables -A INPUT -s 104.133.15.0/24 -j DROP
iptables -A INPUT -s 104.133.17.0/24 -j DROP
iptables -A INPUT -s 104.133.18.0/24 -j DROP
iptables -A INPUT -s 106.1.0.0/16 -j DROP
iptables -A INPUT -s 106.64.0.0/15 -j DROP
iptables -A INPUT -s 106.104.0.0/14 -j DROP
iptables -A INPUT -s 107.150.114.0/24 -j DROP
iptables -A INPUT -s 107.154.94.0/24 -j DROP
iptables -A INPUT -s 107.155.57.0/24 -j DROP
iptables -A INPUT -s 107.155.58.0/24 -j DROP
iptables -A INPUT -s 110.24.0.0/13 -j DROP
iptables -A INPUT -s 110.50.128.0/18 -j DROP
iptables -A INPUT -s 111.67.48.0/20 -j DROP
iptables -A INPUT -s 111.70.0.0/15 -j DROP
iptables -A INPUT -s 111.80.0.0/14 -j DROP
iptables -A INPUT -s 111.125.128.0/21 -j DROP
iptables -A INPUT -s 111.184.0.0/15 -j DROP
iptables -A INPUT -s 111.235.192.0/18 -j DROP
iptables -A INPUT -s 111.240.0.0/12 -j DROP
iptables -A INPUT -s 112.78.16.0/20 -j DROP
iptables -A INPUT -s 112.78.64.0/19 -j DROP
iptables -A INPUT -s 112.104.0.0/15 -j DROP
iptables -A INPUT -s 112.121.32.0/20 -j DROP
iptables -A INPUT -s 112.121.64.0/18 -j DROP
iptables -A INPUT -s 112.213.48.0/20 -j DROP
iptables -A INPUT -s 113.21.80.0/20 -j DROP
iptables -A INPUT -s 113.21.160.0/19 -j DROP
iptables -A INPUT -s 113.61.128.0/17 -j DROP
iptables -A INPUT -s 113.196.0.0/16 -j DROP
iptables -A INPUT -s 114.24.0.0/14 -j DROP
iptables -A INPUT -s 114.29.240.0/21 -j DROP
iptables -A INPUT -s 114.30.32.0/20 -j DROP
iptables -A INPUT -s 114.32.0.0/12 -j DROP
iptables -A INPUT -s 114.136.0.0/15 -j DROP
iptables -A INPUT -s 114.140.0.0/16 -j DROP
iptables -A INPUT -s 114.198.160.0/19 -j DROP
iptables -A INPUT -s 114.199.72.0/22 -j DROP
iptables -A INPUT -s 115.30.64.0/18 -j DROP
iptables -A INPUT -s 115.42.80.0/20 -j DROP
iptables -A INPUT -s 115.42.112.0/21 -j DROP
iptables -A INPUT -s 115.43.0.0/16 -j DROP
iptables -A INPUT -s 115.80.0.0/14 -j DROP
iptables -A INPUT -s 115.85.144.0/20 -j DROP
iptables -A INPUT -s 115.165.192.0/18 -j DROP
iptables -A INPUT -s 115.178.1.0/24 -j DROP
iptables -A INPUT -s 116.0.68.0/28 -j DROP
iptables -A INPUT -s 116.0.68.16/30 -j DROP
iptables -A INPUT -s 116.0.68.20/31 -j DROP
iptables -A INPUT -s 116.0.68.23/32 -j DROP
iptables -A INPUT -s 116.0.68.24/29 -j DROP
iptables -A INPUT -s 116.0.68.32/27 -j DROP
iptables -A INPUT -s 116.0.68.64/26 -j DROP
iptables -A INPUT -s 116.0.68.128/25 -j DROP
iptables -A INPUT -s 116.0.69.0/29 -j DROP
iptables -A INPUT -s 116.50.32.0/20 -j DROP
iptables -A INPUT -s 116.59.0.0/16 -j DROP
iptables -A INPUT -s 116.89.128.0/20 -j DROP
iptables -A INPUT -s 116.118.128.0/18 -j DROP
iptables -A INPUT -s 116.212.80.0/20 -j DROP
iptables -A INPUT -s 116.214.0.185/32 -j DROP
iptables -A INPUT -s 116.214.0.186/31 -j DROP
iptables -A INPUT -s 116.214.0.188/32 -j DROP
iptables -A INPUT -s 116.214.1.0/24 -j DROP
iptables -A INPUT -s 116.214.2.0/23 -j DROP
iptables -A INPUT -s 116.214.4.0/23 -j DROP
iptables -A INPUT -s 116.214.6.1/32 -j DROP
iptables -A INPUT -s 116.214.6.2/31 -j DROP
iptables -A INPUT -s 116.214.6.4/32 -j DROP
iptables -A INPUT -s 116.214.6.7/32 -j DROP
iptables -A INPUT -s 116.214.6.16/29 -j DROP
iptables -A INPUT -s 116.214.6.42/31 -j DROP
iptables -A INPUT -s 116.214.6.44/32 -j DROP
iptables -A INPUT -s 116.214.6.49/32 -j DROP
iptables -A INPUT -s 116.214.6.50/31 -j DROP
iptables -A INPUT -s 116.214.6.53/32 -j DROP
iptables -A INPUT -s 116.214.6.54/32 -j DROP
iptables -A INPUT -s 116.214.6.63/32 -j DROP
iptables -A INPUT -s 116.214.6.65/32 -j DROP
iptables -A INPUT -s 116.214.6.67/32 -j DROP
iptables -A INPUT -s 116.214.6.68/32 -j DROP
iptables -A INPUT -s 116.214.6.71/32 -j DROP
iptables -A INPUT -s 116.214.6.78/31 -j DROP
iptables -A INPUT -s 116.214.6.80/31 -j DROP
iptables -A INPUT -s 116.214.6.84/30 -j DROP
iptables -A INPUT -s 116.214.6.90/31 -j DROP
iptables -A INPUT -s 116.214.6.99/32 -j DROP
iptables -A INPUT -s 116.214.6.100/32 -j DROP
iptables -A INPUT -s 116.214.6.102/32 -j DROP
iptables -A INPUT -s 116.214.6.104/31 -j DROP
iptables -A INPUT -s 116.214.6.112/31 -j DROP
iptables -A INPUT -s 116.214.6.116/30 -j DROP
iptables -A INPUT -s 116.214.6.120/31 -j DROP
iptables -A INPUT -s 116.214.6.125/32 -j DROP
iptables -A INPUT -s 116.214.6.126/31 -j DROP
iptables -A INPUT -s 116.214.6.128/31 -j DROP
iptables -A INPUT -s 116.214.6.131/32 -j DROP
iptables -A INPUT -s 116.214.6.132/31 -j DROP
iptables -A INPUT -s 116.214.6.135/32 -j DROP
iptables -A INPUT -s 116.214.6.140/32 -j DROP
iptables -A INPUT -s 116.214.6.146/31 -j DROP
iptables -A INPUT -s 116.214.6.152/32 -j DROP
iptables -A INPUT -s 116.214.6.154/32 -j DROP
iptables -A INPUT -s 116.214.6.159/32 -j DROP
iptables -A INPUT -s 116.214.6.160/31 -j DROP
iptables -A INPUT -s 116.214.6.164/32 -j DROP
iptables -A INPUT -s 116.214.6.181/32 -j DROP
iptables -A INPUT -s 116.214.6.182/32 -j DROP
iptables -A INPUT -s 116.214.6.184/32 -j DROP
iptables -A INPUT -s 116.214.6.188/30 -j DROP
iptables -A INPUT -s 116.214.6.196/32 -j DROP
iptables -A INPUT -s 116.214.6.204/30 -j DROP
iptables -A INPUT -s 116.214.6.208/32 -j DROP
iptables -A INPUT -s 116.214.6.215/32 -j DROP
iptables -A INPUT -s 116.214.6.220/30 -j DROP
iptables -A INPUT -s 116.214.6.224/32 -j DROP
iptables -A INPUT -s 116.214.6.226/31 -j DROP
iptables -A INPUT -s 116.214.6.232/31 -j DROP
iptables -A INPUT -s 116.214.6.236/31 -j DROP
iptables -A INPUT -s 116.214.6.238/32 -j DROP
iptables -A INPUT -s 116.214.6.241/32 -j DROP
iptables -A INPUT -s 116.214.6.250/31 -j DROP
iptables -A INPUT -s 116.214.7.0/24 -j DROP
iptables -A INPUT -s 116.214.8.1/32 -j DROP
iptables -A INPUT -s 116.214.8.2/31 -j DROP
iptables -A INPUT -s 116.214.8.4/31 -j DROP
iptables -A INPUT -s 116.214.8.6/32 -j DROP
iptables -A INPUT -s 116.214.8.33/32 -j DROP
iptables -A INPUT -s 116.214.8.34/31 -j DROP
iptables -A INPUT -s 116.214.8.36/31 -j DROP
iptables -A INPUT -s 116.214.8.39/32 -j DROP
iptables -A INPUT -s 116.214.8.40/32 -j DROP
iptables -A INPUT -s 116.214.8.52/31 -j DROP
iptables -A INPUT -s 116.214.8.65/32 -j DROP
iptables -A INPUT -s 116.214.8.66/31 -j DROP
iptables -A INPUT -s 116.214.8.68/32 -j DROP
iptables -A INPUT -s 116.214.8.76/30 -j DROP
iptables -A INPUT -s 116.214.8.80/31 -j DROP
iptables -A INPUT -s 116.214.8.95/32 -j DROP
iptables -A INPUT -s 116.214.8.96/32 -j DROP
iptables -A INPUT -s 116.214.8.101/32 -j DROP
iptables -A INPUT -s 116.214.8.122/31 -j DROP
iptables -A INPUT -s 116.214.8.124/31 -j DROP
iptables -A INPUT -s 116.214.8.126/32 -j DROP
iptables -A INPUT -s 116.214.8.129/32 -j DROP
iptables -A INPUT -s 116.214.8.130/31 -j DROP
iptables -A INPUT -s 116.214.8.132/31 -j DROP
iptables -A INPUT -s 116.214.8.134/32 -j DROP
iptables -A INPUT -s 116.214.8.136/30 -j DROP
iptables -A INPUT -s 116.214.8.161/32 -j DROP
iptables -A INPUT -s 116.214.8.193/32 -j DROP
iptables -A INPUT -s 116.214.8.194/31 -j DROP
iptables -A INPUT -s 116.214.8.196/31 -j DROP
iptables -A INPUT -s 116.214.8.198/32 -j DROP
iptables -A INPUT -s 116.214.8.209/32 -j DROP
iptables -A INPUT -s 116.214.8.210/31 -j DROP
iptables -A INPUT -s 116.214.8.212/31 -j DROP
iptables -A INPUT -s 116.214.8.214/32 -j DROP
iptables -A INPUT -s 116.214.8.225/32 -j DROP
iptables -A INPUT -s 116.214.8.226/32 -j DROP
iptables -A INPUT -s 116.214.8.228/32 -j DROP
iptables -A INPUT -s 116.214.8.231/32 -j DROP
iptables -A INPUT -s 116.214.8.239/32 -j DROP
iptables -A INPUT -s 116.214.8.240/32 -j DROP
iptables -A INPUT -s 116.214.8.243/32 -j DROP
iptables -A INPUT -s 116.214.8.244/32 -j DROP
iptables -A INPUT -s 116.214.8.248/31 -j DROP
iptables -A INPUT -s 116.214.8.253/32 -j DROP
iptables -A INPUT -s 116.214.8.254/32 -j DROP
iptables -A INPUT -s 116.214.9.17/32 -j DROP
iptables -A INPUT -s 116.214.9.18/31 -j DROP
iptables -A INPUT -s 116.214.9.20/30 -j DROP
iptables -A INPUT -s 116.214.9.24/30 -j DROP
iptables -A INPUT -s 116.214.9.28/31 -j DROP
iptables -A INPUT -s 116.214.9.30/32 -j DROP
iptables -A INPUT -s 116.214.9.33/32 -j DROP
iptables -A INPUT -s 116.214.9.34/31 -j DROP
iptables -A INPUT -s 116.214.9.40/29 -j DROP
iptables -A INPUT -s 116.214.9.48/31 -j DROP
iptables -A INPUT -s 116.214.9.50/32 -j DROP
iptables -A INPUT -s 116.214.9.52/30 -j DROP
iptables -A INPUT -s 116.214.9.56/30 -j DROP
iptables -A INPUT -s 116.214.9.60/32 -j DROP
iptables -A INPUT -s 116.214.9.65/32 -j DROP
iptables -A INPUT -s 116.214.9.66/31 -j DROP
iptables -A INPUT -s 116.214.9.68/30 -j DROP
iptables -A INPUT -s 116.214.9.72/29 -j DROP
iptables -A INPUT -s 116.214.9.80/31 -j DROP
iptables -A INPUT -s 116.214.9.82/32 -j DROP
iptables -A INPUT -s 116.214.9.87/32 -j DROP
iptables -A INPUT -s 116.214.9.88/30 -j DROP
iptables -A INPUT -s 116.214.9.92/31 -j DROP
iptables -A INPUT -s 116.214.9.94/32 -j DROP
iptables -A INPUT -s 116.214.9.97/32 -j DROP
iptables -A INPUT -s 116.214.9.98/31 -j DROP
iptables -A INPUT -s 116.214.9.120/30 -j DROP
iptables -A INPUT -s 116.214.9.124/31 -j DROP
iptables -A INPUT -s 116.214.9.126/32 -j DROP
iptables -A INPUT -s 116.214.9.193/32 -j DROP
iptables -A INPUT -s 116.214.9.194/31 -j DROP
iptables -A INPUT -s 116.214.9.196/32 -j DROP
iptables -A INPUT -s 116.214.10.0/23 -j DROP
iptables -A INPUT -s 116.214.12.0/22 -j DROP
iptables -A INPUT -s 116.241.0.0/16 -j DROP
iptables -A INPUT -s 116.251.232.0/22 -j DROP
iptables -A INPUT -s 116.251.252.0/24 -j DROP
iptables -A INPUT -s 117.19.0.0/16 -j DROP
iptables -A INPUT -s 117.56.0.0/16 -j DROP
iptables -A INPUT -s 117.103.96.0/20 -j DROP
iptables -A INPUT -s 117.104.191.0/24 -j DROP
iptables -A INPUT -s 118.99.12.0/24 -j DROP
iptables -A INPUT -s 118.99.128.0/17 -j DROP
iptables -A INPUT -s 118.107.177.0/24 -j DROP
iptables -A INPUT -s 118.107.178.0/23 -j DROP
iptables -A INPUT -s 118.150.0.0/16 -j DROP
iptables -A INPUT -s 118.160.0.0/13 -j DROP
iptables -A INPUT -s 118.168.0.0/14 -j DROP
iptables -A INPUT -s 118.214.240.0/20 -j DROP
iptables -A INPUT -s 118.231.0.0/16 -j DROP
iptables -A INPUT -s 118.232.0.0/15 -j DROP
iptables -A INPUT -s 119.14.0.0/16 -j DROP
iptables -A INPUT -s 119.15.192.0/18 -j DROP
iptables -A INPUT -s 119.30.16.0/20 -j DROP
iptables -A INPUT -s 119.31.176.0/20 -j DROP
iptables -A INPUT -s 119.75.240.0/20 -j DROP
iptables -A INPUT -s 119.77.128.0/17 -j DROP
iptables -A INPUT -s 119.160.240.0/21 -j DROP
iptables -A INPUT -s 119.160.248.0/23 -j DROP
iptables -A INPUT -s 119.160.250.0/30 -j DROP
iptables -A INPUT -s 119.160.250.4/32 -j DROP
iptables -A INPUT -s 119.160.250.7/32 -j DROP
iptables -A INPUT -s 119.160.250.8/29 -j DROP
iptables -A INPUT -s 119.160.250.16/28 -j DROP
iptables -A INPUT -s 119.160.250.32/27 -j DROP
iptables -A INPUT -s 119.160.250.64/26 -j DROP
iptables -A INPUT -s 119.160.250.128/25 -j DROP
iptables -A INPUT -s 119.160.251.0/24 -j DROP
iptables -A INPUT -s 119.160.252.0/22 -j DROP
iptables -A INPUT -s 120.96.0.0/11 -j DROP
iptables -A INPUT -s 120.138.50.8/32 -j DROP
iptables -A INPUT -s 121.50.144.0/21 -j DROP
iptables -A INPUT -s 121.50.176.0/20 -j DROP
iptables -A INPUT -s 121.254.64.0/18 -j DROP
iptables -A INPUT -s 122.99.0.0/18 -j DROP
iptables -A INPUT -s 122.100.64.0/18 -j DROP
iptables -A INPUT -s 122.116.0.0/15 -j DROP
iptables -A INPUT -s 122.118.0.0/16 -j DROP
iptables -A INPUT -s 122.120.0.0/13 -j DROP
iptables -A INPUT -s 122.128.80.0/21 -j DROP
iptables -A INPUT -s 122.144.32.0/19 -j DROP
iptables -A INPUT -s 122.146.0.0/15 -j DROP
iptables -A INPUT -s 122.152.134.0/27 -j DROP
iptables -A INPUT -s 122.152.134.64/26 -j DROP
iptables -A INPUT -s 122.152.162.0/28 -j DROP
iptables -A INPUT -s 122.152.162.32/28 -j DROP
iptables -A INPUT -s 122.152.162.56/29 -j DROP
iptables -A INPUT -s 122.152.162.144/28 -j DROP
iptables -A INPUT -s 122.152.162.192/27 -j DROP
iptables -A INPUT -s 122.152.163.192/26 -j DROP
iptables -A INPUT -s 122.152.179.128/25 -j DROP
iptables -A INPUT -s 122.152.181.32/27 -j DROP
iptables -A INPUT -s 122.152.181.64/27 -j DROP
iptables -A INPUT -s 122.152.182.48/28 -j DROP
iptables -A INPUT -s 122.152.182.64/28 -j DROP
iptables -A INPUT -s 122.152.184.97/32 -j DROP
iptables -A INPUT -s 122.200.152.0/21 -j DROP
iptables -A INPUT -s 122.201.128.0/17 -j DROP
iptables -A INPUT -s 122.248.184.0/27 -j DROP
iptables -A INPUT -s 122.248.184.32/28 -j DROP
iptables -A INPUT -s 122.248.184.64/27 -j DROP
iptables -A INPUT -s 122.248.184.96/30 -j DROP
iptables -A INPUT -s 122.248.184.112/28 -j DROP
iptables -A INPUT -s 122.248.184.128/29 -j DROP
iptables -A INPUT -s 122.248.184.160/30 -j DROP
iptables -A INPUT -s 122.248.184.188/30 -j DROP
iptables -A INPUT -s 122.248.184.192/26 -j DROP
iptables -A INPUT -s 122.248.185.0/25 -j DROP
iptables -A INPUT -s 122.248.185.192/28 -j DROP
iptables -A INPUT -s 122.248.185.216/29 -j DROP
iptables -A INPUT -s 122.248.185.224/27 -j DROP
iptables -A INPUT -s 122.252.160.0/20 -j DROP
iptables -A INPUT -s 122.254.0.0/18 -j DROP
iptables -A INPUT -s 122.255.80.0/24 -j DROP
iptables -A INPUT -s 122.255.91.0/24 -j DROP
iptables -A INPUT -s 122.255.93.0/24 -j DROP
iptables -A INPUT -s 122.255.94.0/23 -j DROP
iptables -A INPUT -s 123.0.32.0/19 -j DROP
iptables -A INPUT -s 123.0.192.0/18 -j DROP
iptables -A INPUT -s 123.50.32.0/19 -j DROP
iptables -A INPUT -s 123.51.128.0/17 -j DROP
iptables -A INPUT -s 123.99.0.0/18 -j DROP
iptables -A INPUT -s 123.108.137.0/24 -j DROP
iptables -A INPUT -s 123.108.142.0/23 -j DROP
iptables -A INPUT -s 123.110.0.0/16 -j DROP
iptables -A INPUT -s 123.192.0.0/14 -j DROP
iptables -A INPUT -s 123.204.0.0/15 -j DROP
iptables -A INPUT -s 123.240.0.0/15 -j DROP
iptables -A INPUT -s 123.252.0.0/17 -j DROP
iptables -A INPUT -s 123.255.224.0/21 -j DROP
iptables -A INPUT -s 124.6.0.0/19 -j DROP
iptables -A INPUT -s 124.8.0.0/14 -j DROP
iptables -A INPUT -s 124.12.0.0/16 -j DROP
iptables -A INPUT -s 124.29.128.0/18 -j DROP
iptables -A INPUT -s 124.108.90.0/23 -j DROP
iptables -A INPUT -s 124.108.92.0/22 -j DROP
iptables -A INPUT -s 124.108.116.0/32 -j DROP
iptables -A INPUT -s 124.108.116.64/32 -j DROP
iptables -A INPUT -s 124.108.128.0/18 -j DROP
iptables -A INPUT -s 124.109.4.0/24 -j DROP
iptables -A INPUT -s 124.109.5.0/27 -j DROP
iptables -A INPUT -s 124.109.5.56/29 -j DROP
iptables -A INPUT -s 124.109.5.64/27 -j DROP
iptables -A INPUT -s 124.109.5.128/26 -j DROP
iptables -A INPUT -s 124.109.5.224/27 -j DROP
iptables -A INPUT -s 124.109.6.0/27 -j DROP
iptables -A INPUT -s 124.109.6.64/26 -j DROP
iptables -A INPUT -s 124.109.6.128/26 -j DROP
iptables -A INPUT -s 124.109.6.192/28 -j DROP
iptables -A INPUT -s 124.109.6.208/29 -j DROP
iptables -A INPUT -s 124.109.112.0/20 -j DROP
iptables -A INPUT -s 124.150.128.0/21 -j DROP
iptables -A INPUT -s 124.155.128.0/18 -j DROP
iptables -A INPUT -s 124.199.64.0/19 -j DROP
iptables -A INPUT -s 124.199.96.0/20 -j DROP
iptables -A INPUT -s 124.218.0.0/16 -j DROP
iptables -A INPUT -s 124.219.0.0/17 -j DROP
iptables -A INPUT -s 125.62.224.0/20 -j DROP
iptables -A INPUT -s 125.224.0.0/13 -j DROP
iptables -A INPUT -s 125.232.0.0/15 -j DROP
iptables -A INPUT -s 125.252.64.224/27 -j DROP
iptables -A INPUT -s 125.252.65.0/26 -j DROP
iptables -A INPUT -s 125.252.65.192/26 -j DROP
iptables -A INPUT -s 125.252.66.32/27 -j DROP
iptables -A INPUT -s 125.252.66.96/27 -j DROP
iptables -A INPUT -s 125.252.66.128/27 -j DROP
iptables -A INPUT -s 125.252.67.32/28 -j DROP
iptables -A INPUT -s 125.252.67.128/26 -j DROP
iptables -A INPUT -s 125.252.67.208/29 -j DROP
iptables -A INPUT -s 125.252.67.224/27 -j DROP
iptables -A INPUT -s 125.252.68.32/28 -j DROP
iptables -A INPUT -s 125.252.68.128/26 -j DROP
iptables -A INPUT -s 125.252.68.192/27 -j DROP
iptables -A INPUT -s 125.252.69.0/24 -j DROP
iptables -A INPUT -s 125.252.70.240/28 -j DROP
iptables -A INPUT -s 125.252.74.64/26 -j DROP
iptables -A INPUT -s 125.252.74.128/26 -j DROP
iptables -A INPUT -s 125.252.74.200/29 -j DROP
iptables -A INPUT -s 125.252.75.64/26 -j DROP
iptables -A INPUT -s 125.252.76.0/23 -j DROP
iptables -A INPUT -s 125.252.82.0/24 -j DROP
iptables -A INPUT -s 125.252.96.0/27 -j DROP
iptables -A INPUT -s 125.252.96.64/26 -j DROP
iptables -A INPUT -s 125.252.96.128/27 -j DROP
iptables -A INPUT -s 125.252.96.160/28 -j DROP
iptables -A INPUT -s 128.1.32.0/24 -j DROP
iptables -A INPUT -s 128.1.37.0/24 -j DROP
iptables -A INPUT -s 128.1.45.0/24 -j DROP
iptables -A INPUT -s 128.1.50.0/24 -j DROP
iptables -A INPUT -s 128.1.64.0/24 -j DROP
iptables -A INPUT -s 128.1.101.0/24 -j DROP
iptables -A INPUT -s 128.1.102.0/24 -j DROP
iptables -A INPUT -s 128.1.107.0/24 -j DROP
iptables -A INPUT -s 128.14.226.0/23 -j DROP
iptables -A INPUT -s 128.14.229.0/24 -j DROP
iptables -A INPUT -s 128.14.230.0/24 -j DROP
iptables -A INPUT -s 128.14.237.0/24 -j DROP
iptables -A INPUT -s 128.14.238.0/24 -j DROP
iptables -A INPUT -s 128.90.72.0/23 -j DROP
iptables -A INPUT -s 128.90.74.0/24 -j DROP
iptables -A INPUT -s 128.90.111.0/24 -j DROP
iptables -A INPUT -s 128.90.118.0/24 -j DROP
iptables -A INPUT -s 128.241.5.245/32 -j DROP
iptables -A INPUT -s 128.241.5.246/32 -j DROP
iptables -A INPUT -s 129.250.0.34/32 -j DROP
iptables -A INPUT -s 129.250.0.86/32 -j DROP
iptables -A INPUT -s 129.250.0.97/32 -j DROP
iptables -A INPUT -s 129.250.0.101/32 -j DROP
iptables -A INPUT -s 129.250.0.111/32 -j DROP
iptables -A INPUT -s 129.250.1.136/31 -j DROP
iptables -A INPUT -s 129.250.1.235/32 -j DROP
iptables -A INPUT -s 129.250.2.82/31 -j DROP
iptables -A INPUT -s 129.250.2.106/31 -j DROP
iptables -A INPUT -s 129.250.2.181/32 -j DROP
iptables -A INPUT -s 129.250.3.66/32 -j DROP
iptables -A INPUT -s 129.250.4.64/31 -j DROP
iptables -A INPUT -s 129.250.4.182/32 -j DROP
iptables -A INPUT -s 129.250.5.173/32 -j DROP
iptables -A INPUT -s 129.250.5.174/32 -j DROP
iptables -A INPUT -s 129.250.7.15/32 -j DROP
iptables -A INPUT -s 129.250.7.40/31 -j DROP
iptables -A INPUT -s 129.250.8.169/32 -j DROP
iptables -A INPUT -s 129.250.8.170/32 -j DROP
iptables -A INPUT -s 129.250.17.4/30 -j DROP
iptables -A INPUT -s 129.250.24.253/32 -j DROP
iptables -A INPUT -s 129.250.24.254/32 -j DROP
iptables -A INPUT -s 129.250.25.161/32 -j DROP
iptables -A INPUT -s 129.250.25.162/32 -j DROP
iptables -A INPUT -s 129.250.25.165/32 -j DROP
iptables -A INPUT -s 129.250.25.166/32 -j DROP
iptables -A INPUT -s 129.250.25.169/32 -j DROP
iptables -A INPUT -s 129.250.25.170/32 -j DROP
iptables -A INPUT -s 129.250.62.38/32 -j DROP
iptables -A INPUT -s 129.250.62.85/32 -j DROP
iptables -A INPUT -s 129.250.64.49/32 -j DROP
iptables -A INPUT -s 129.250.64.50/31 -j DROP
iptables -A INPUT -s 129.250.64.57/32 -j DROP
iptables -A INPUT -s 129.250.64.58/31 -j DROP
iptables -A INPUT -s 129.250.97.214/31 -j DROP
iptables -A INPUT -s 129.250.97.216/31 -j DROP
iptables -A INPUT -s 129.250.112.193/32 -j DROP
iptables -A INPUT -s 129.250.112.194/31 -j DROP
iptables -A INPUT -s 129.250.112.201/32 -j DROP
iptables -A INPUT -s 129.250.112.202/31 -j DROP
iptables -A INPUT -s 130.244.61.228/32 -j DROP
iptables -A INPUT -s 131.228.230.160/29 -j DROP
iptables -A INPUT -s 134.159.80.0/22 -j DROP
iptables -A INPUT -s 134.159.90.112/29 -j DROP
iptables -A INPUT -s 134.159.90.128/27 -j DROP
iptables -A INPUT -s 134.159.90.160/29 -j DROP
iptables -A INPUT -s 134.159.90.176/28 -j DROP
iptables -A INPUT -s 134.159.90.192/26 -j DROP
iptables -A INPUT -s 134.159.96.96/29 -j DROP
iptables -A INPUT -s 134.159.96.112/28 -j DROP
iptables -A INPUT -s 134.159.96.128/26 -j DROP
iptables -A INPUT -s 134.159.101.0/24 -j DROP
iptables -A INPUT -s 134.159.103.0/24 -j DROP
iptables -A INPUT -s 134.159.109.0/26 -j DROP
iptables -A INPUT -s 134.159.109.64/27 -j DROP
iptables -A INPUT -s 134.159.109.128/25 -j DROP
iptables -A INPUT -s 134.159.110.8/29 -j DROP
iptables -A INPUT -s 134.159.111.0/29 -j DROP
iptables -A INPUT -s 134.159.112.128/28 -j DROP
iptables -A INPUT -s 134.159.116.208/29 -j DROP
iptables -A INPUT -s 134.159.120.192/29 -j DROP
iptables -A INPUT -s 134.159.120.208/28 -j DROP
iptables -A INPUT -s 134.159.122.224/27 -j DROP
iptables -A INPUT -s 134.159.123.0/29 -j DROP
iptables -A INPUT -s 134.159.123.8/30 -j DROP
iptables -A INPUT -s 134.159.123.16/32 -j DROP
iptables -A INPUT -s 134.159.123.18/31 -j DROP
iptables -A INPUT -s 134.159.123.20/30 -j DROP
iptables -A INPUT -s 134.159.123.24/32 -j DROP
iptables -A INPUT -s 134.159.123.26/31 -j DROP
iptables -A INPUT -s 134.159.123.28/30 -j DROP
iptables -A INPUT -s 134.159.123.32/27 -j DROP
iptables -A INPUT -s 134.159.123.64/30 -j DROP
iptables -A INPUT -s 134.159.123.68/32 -j DROP
iptables -A INPUT -s 134.159.123.70/31 -j DROP
iptables -A INPUT -s 134.159.123.72/32 -j DROP
iptables -A INPUT -s 134.159.123.74/31 -j DROP
iptables -A INPUT -s 134.159.123.76/30 -j DROP
iptables -A INPUT -s 134.159.123.80/28 -j DROP
iptables -A INPUT -s 134.159.123.96/27 -j DROP
iptables -A INPUT -s 134.159.123.128/30 -j DROP
iptables -A INPUT -s 134.159.123.132/32 -j DROP
iptables -A INPUT -s 134.159.123.134/31 -j DROP
iptables -A INPUT -s 134.159.123.136/29 -j DROP
iptables -A INPUT -s 134.159.123.144/28 -j DROP
iptables -A INPUT -s 134.159.123.160/30 -j DROP
iptables -A INPUT -s 134.159.123.164/32 -j DROP
iptables -A INPUT -s 134.159.123.166/31 -j DROP
iptables -A INPUT -s 134.159.123.168/29 -j DROP
iptables -A INPUT -s 134.159.123.176/28 -j DROP
iptables -A INPUT -s 134.159.123.192/28 -j DROP
iptables -A INPUT -s 134.159.123.208/30 -j DROP
iptables -A INPUT -s 134.159.123.212/32 -j DROP
iptables -A INPUT -s 134.159.123.214/31 -j DROP
iptables -A INPUT -s 134.159.123.216/29 -j DROP
iptables -A INPUT -s 134.159.123.224/29 -j DROP
iptables -A INPUT -s 134.159.123.232/32 -j DROP
iptables -A INPUT -s 134.159.123.234/31 -j DROP
iptables -A INPUT -s 134.159.123.236/30 -j DROP
iptables -A INPUT -s 134.159.123.240/29 -j DROP
iptables -A INPUT -s 134.159.123.248/32 -j DROP
iptables -A INPUT -s 134.159.123.250/31 -j DROP
iptables -A INPUT -s 134.159.123.252/30 -j DROP
iptables -A INPUT -s 134.159.133.0/25 -j DROP
iptables -A INPUT -s 134.159.142.224/29 -j DROP
iptables -A INPUT -s 134.159.160.56/30 -j DROP
iptables -A INPUT -s 134.159.170.0/24 -j DROP
iptables -A INPUT -s 134.159.194.0/23 -j DROP
iptables -A INPUT -s 134.208.0.0/16 -j DROP
iptables -A INPUT -s 139.175.0.0/16 -j DROP
iptables -A INPUT -s 139.223.0.0/16 -j DROP
iptables -A INPUT -s 140.82.193.0/24 -j DROP
iptables -A INPUT -s 140.92.0.0/16 -j DROP
iptables -A INPUT -s 140.96.0.0/16 -j DROP
iptables -A INPUT -s 140.109.0.0/16 -j DROP
iptables -A INPUT -s 140.110.0.0/15 -j DROP
iptables -A INPUT -s 140.112.0.0/12 -j DROP
iptables -A INPUT -s 140.128.0.0/13 -j DROP
iptables -A INPUT -s 140.136.0.0/15 -j DROP
iptables -A INPUT -s 140.138.0.0/16 -j DROP
iptables -A INPUT -s 141.226.118.0/23 -j DROP
iptables -A INPUT -s 144.178.6.98/31 -j DROP
iptables -A INPUT -s 144.178.14.64/30 -j DROP
iptables -A INPUT -s 147.135.40.168/30 -j DROP
iptables -A INPUT -s 147.135.40.196/30 -j DROP
iptables -A INPUT -s 150.107.56.0/21 -j DROP
iptables -A INPUT -s 150.107.64.0/22 -j DROP
iptables -A INPUT -s 150.116.0.0/15 -j DROP
iptables -A INPUT -s 150.129.36.0/22 -j DROP
iptables -A INPUT -s 150.129.72.0/22 -j DROP
iptables -A INPUT -s 150.129.96.0/22 -j DROP
iptables -A INPUT -s 150.129.228.0/22 -j DROP
iptables -A INPUT -s 150.242.100.0/22 -j DROP
iptables -A INPUT -s 152.101.5.0/24 -j DROP
iptables -A INPUT -s 152.101.25.0/24 -j DROP
iptables -A INPUT -s 152.101.26.0/23 -j DROP
iptables -A INPUT -s 152.101.32.0/24 -j DROP
iptables -A INPUT -s 152.101.50.0/24 -j DROP
iptables -A INPUT -s 152.101.174.0/24 -j DROP
iptables -A INPUT -s 156.107.136.28/30 -j DROP
iptables -A INPUT -s 156.107.136.148/30 -j DROP
iptables -A INPUT -s 156.107.137.28/30 -j DROP
iptables -A INPUT -s 156.107.156.28/30 -j DROP
iptables -A INPUT -s 156.107.156.148/30 -j DROP
iptables -A INPUT -s 156.107.157.28/30 -j DROP
iptables -A INPUT -s 157.240.33.35/32 -j DROP
iptables -A INPUT -s 157.240.34.141/32 -j DROP
iptables -A INPUT -s 157.240.34.143/32 -j DROP
iptables -A INPUT -s 157.240.40.47/32 -j DROP
iptables -A INPUT -s 157.240.41.68/30 -j DROP
iptables -A INPUT -s 157.240.41.72/30 -j DROP
iptables -A INPUT -s 157.240.41.154/32 -j DROP
iptables -A INPUT -s 157.240.41.156/30 -j DROP
iptables -A INPUT -s 157.240.44.171/32 -j DROP
iptables -A INPUT -s 157.240.44.177/32 -j DROP
iptables -A INPUT -s 157.240.45.109/32 -j DROP
iptables -A INPUT -s 157.240.47.93/32 -j DROP
iptables -A INPUT -s 157.240.58.162/31 -j DROP
iptables -A INPUT -s 157.240.60.200/31 -j DROP
iptables -A INPUT -s 157.240.61.64/31 -j DROP
iptables -A INPUT -s 157.240.61.232/30 -j DROP
iptables -A INPUT -s 157.240.61.250/32 -j DROP
iptables -A INPUT -s 157.240.62.2/32 -j DROP
iptables -A INPUT -s 157.240.62.57/32 -j DROP
iptables -A INPUT -s 157.240.62.58/32 -j DROP
iptables -A INPUT -s 157.240.62.77/32 -j DROP
iptables -A INPUT -s 157.240.62.78/32 -j DROP
iptables -A INPUT -s 157.240.63.5/32 -j DROP
iptables -A INPUT -s 157.240.63.6/31 -j DROP
iptables -A INPUT -s 157.240.63.8/29 -j DROP
iptables -A INPUT -s 157.240.63.16/32 -j DROP
iptables -A INPUT -s 158.116.222.57/32 -j DROP
iptables -A INPUT -s 158.116.222.58/32 -j DROP
iptables -A INPUT -s 159.63.8.0/24 -j DROP
iptables -A INPUT -s 159.63.89.0/24 -j DROP
iptables -A INPUT -s 159.63.90.0/24 -j DROP
iptables -A INPUT -s 159.117.64.0/19 -j DROP
iptables -A INPUT -s 160.19.52.0/22 -j DROP
iptables -A INPUT -s 162.158.241.0/24 -j DROP
iptables -A INPUT -s 162.222.165.0/24 -j DROP
iptables -A INPUT -s 163.13.0.0/16 -j DROP
iptables -A INPUT -s 163.14.0.0/15 -j DROP
iptables -A INPUT -s 163.16.0.0/12 -j DROP
iptables -A INPUT -s 163.32.0.0/16 -j DROP
iptables -A INPUT -s 165.204.134.0/23 -j DROP
iptables -A INPUT -s 165.225.102.0/24 -j DROP
iptables -A INPUT -s 168.95.0.0/16 -j DROP
iptables -A INPUT -s 172.217.42.0/24 -j DROP
iptables -A INPUT -s 173.194.93.0/24 -j DROP
iptables -A INPUT -s 173.194.171.0/24 -j DROP
iptables -A INPUT -s 173.223.206.0/24 -j DROP
iptables -A INPUT -s 173.252.64.177/32 -j DROP
iptables -A INPUT -s 173.252.64.178/31 -j DROP
iptables -A INPUT -s 173.252.64.180/32 -j DROP
iptables -A INPUT -s 173.252.65.74/31 -j DROP
iptables -A INPUT -s 175.41.48.0/21 -j DROP
iptables -A INPUT -s 175.41.56.0/22 -j DROP
iptables -A INPUT -s 175.41.60.0/29 -j DROP
iptables -A INPUT -s 175.41.60.8/32 -j DROP
iptables -A INPUT -s 175.41.60.10/31 -j DROP
iptables -A INPUT -s 175.41.60.12/30 -j DROP
iptables -A INPUT -s 175.41.60.16/28 -j DROP
iptables -A INPUT -s 175.41.60.32/27 -j DROP
iptables -A INPUT -s 175.41.60.64/26 -j DROP
iptables -A INPUT -s 175.41.60.128/25 -j DROP
iptables -A INPUT -s 175.41.61.0/31 -j DROP
iptables -A INPUT -s 175.41.61.3/32 -j DROP
iptables -A INPUT -s 175.41.61.4/30 -j DROP
iptables -A INPUT -s 175.41.61.8/29 -j DROP
iptables -A INPUT -s 175.41.61.16/28 -j DROP
iptables -A INPUT -s 175.41.61.32/27 -j DROP
iptables -A INPUT -s 175.41.61.64/26 -j DROP
iptables -A INPUT -s 175.41.61.128/25 -j DROP
iptables -A INPUT -s 175.41.62.0/23 -j DROP
iptables -A INPUT -s 175.96.0.0/14 -j DROP
iptables -A INPUT -s 175.111.32.0/19 -j DROP
iptables -A INPUT -s 175.111.192.0/18 -j DROP
iptables -A INPUT -s 175.180.0.0/14 -j DROP
iptables -A INPUT -s 175.184.240.0/21 -j DROP
iptables -A INPUT -s 178.171.24.0/21 -j DROP
iptables -A INPUT -s 178.171.120.0/21 -j DROP
iptables -A INPUT -s 180.87.70.0/30 -j DROP
iptables -A INPUT -s 180.87.70.4/32 -j DROP
iptables -A INPUT -s 180.87.70.6/31 -j DROP
iptables -A INPUT -s 180.87.70.8/29 -j DROP
iptables -A INPUT -s 180.87.70.16/28 -j DROP
iptables -A INPUT -s 180.87.70.32/27 -j DROP
iptables -A INPUT -s 180.87.70.64/26 -j DROP
iptables -A INPUT -s 180.87.70.128/25 -j DROP
iptables -A INPUT -s 180.87.76.0/24 -j DROP
iptables -A INPUT -s 180.87.77.0/28 -j DROP
iptables -A INPUT -s 180.87.77.16/30 -j DROP
iptables -A INPUT -s 180.87.92.0/25 -j DROP
iptables -A INPUT -s 180.87.92.128/26 -j DROP
iptables -A INPUT -s 180.87.92.192/27 -j DROP
iptables -A INPUT -s 180.87.92.224/28 -j DROP
iptables -A INPUT -s 180.87.92.240/29 -j DROP
iptables -A INPUT -s 180.87.92.248/30 -j DROP
iptables -A INPUT -s 180.87.92.252/31 -j DROP
iptables -A INPUT -s 180.87.92.255/32 -j DROP
iptables -A INPUT -s 180.92.0.0/20 -j DROP
iptables -A INPUT -s 180.176.0.0/15 -j DROP
iptables -A INPUT -s 180.204.0.0/14 -j DROP
iptables -A INPUT -s 180.214.176.0/20 -j DROP
iptables -A INPUT -s 180.217.0.0/16 -j DROP
iptables -A INPUT -s 180.218.0.0/16 -j DROP
iptables -A INPUT -s 180.222.97.0/24 -j DROP
iptables -A INPUT -s 180.222.98.0/24 -j DROP
iptables -A INPUT -s 180.222.100.1/32 -j DROP
iptables -A INPUT -s 180.222.100.2/31 -j DROP
iptables -A INPUT -s 180.222.100.4/30 -j DROP
iptables -A INPUT -s 180.222.100.8/29 -j DROP
iptables -A INPUT -s 180.222.100.16/28 -j DROP
iptables -A INPUT -s 180.222.100.32/27 -j DROP
iptables -A INPUT -s 180.222.100.64/28 -j DROP
iptables -A INPUT -s 180.222.100.80/29 -j DROP
iptables -A INPUT -s 180.222.100.88/31 -j DROP
iptables -A INPUT -s 180.222.100.90/32 -j DROP
iptables -A INPUT -s 180.222.100.92/31 -j DROP
iptables -A INPUT -s 180.222.100.94/32 -j DROP
iptables -A INPUT -s 180.222.101.1/32 -j DROP
iptables -A INPUT -s 180.222.101.8/30 -j DROP
iptables -A INPUT -s 180.222.101.12/31 -j DROP
iptables -A INPUT -s 180.222.101.16/31 -j DROP
iptables -A INPUT -s 180.222.101.19/32 -j DROP
iptables -A INPUT -s 180.222.101.21/32 -j DROP
iptables -A INPUT -s 180.222.101.22/31 -j DROP
iptables -A INPUT -s 180.222.101.25/32 -j DROP
iptables -A INPUT -s 180.222.101.27/32 -j DROP
iptables -A INPUT -s 180.222.101.28/31 -j DROP
iptables -A INPUT -s 180.222.101.33/32 -j DROP
iptables -A INPUT -s 180.222.101.39/32 -j DROP
iptables -A INPUT -s 180.222.101.40/32 -j DROP
iptables -A INPUT -s 180.222.101.65/32 -j DROP
iptables -A INPUT -s 180.222.101.72/30 -j DROP
iptables -A INPUT -s 180.222.101.76/32 -j DROP
iptables -A INPUT -s 180.222.101.78/31 -j DROP
iptables -A INPUT -s 180.222.101.113/32 -j DROP
iptables -A INPUT -s 180.222.101.115/32 -j DROP
iptables -A INPUT -s 180.222.101.118/31 -j DROP
iptables -A INPUT -s 180.222.101.120/32 -j DROP
iptables -A INPUT -s 180.222.101.124/31 -j DROP
iptables -A INPUT -s 180.222.101.126/32 -j DROP
iptables -A INPUT -s 180.222.101.129/32 -j DROP
iptables -A INPUT -s 180.222.101.136/30 -j DROP
iptables -A INPUT -s 180.222.101.150/31 -j DROP
iptables -A INPUT -s 180.222.101.193/32 -j DROP
iptables -A INPUT -s 180.222.101.200/30 -j DROP
iptables -A INPUT -s 180.222.101.204/31 -j DROP
iptables -A INPUT -s 180.222.102.0/24 -j DROP
iptables -A INPUT -s 180.222.103.5/32 -j DROP
iptables -A INPUT -s 180.222.103.6/32 -j DROP
iptables -A INPUT -s 180.222.207.255/32 -j DROP
iptables -A INPUT -s 182.54.136.0/22 -j DROP
iptables -A INPUT -s 182.155.0.0/16 -j DROP
iptables -A INPUT -s 182.173.0.0/18 -j DROP
iptables -A INPUT -s 182.233.0.0/16 -j DROP
iptables -A INPUT -s 182.234.0.0/15 -j DROP
iptables -A INPUT -s 183.177.64.0/22 -j DROP
iptables -A INPUT -s 183.177.72.1/32 -j DROP
iptables -A INPUT -s 183.177.72.2/31 -j DROP
iptables -A INPUT -s 183.177.72.39/32 -j DROP
iptables -A INPUT -s 183.177.72.40/30 -j DROP
iptables -A INPUT -s 183.177.72.44/31 -j DROP
iptables -A INPUT -s 183.177.72.46/32 -j DROP
iptables -A INPUT -s 183.177.72.65/32 -j DROP
iptables -A INPUT -s 183.177.72.66/31 -j DROP
iptables -A INPUT -s 183.177.72.68/31 -j DROP
iptables -A INPUT -s 183.177.72.70/32 -j DROP
iptables -A INPUT -s 183.177.72.72/32 -j DROP
iptables -A INPUT -s 183.177.72.133/32 -j DROP
iptables -A INPUT -s 183.177.72.134/32 -j DROP
iptables -A INPUT -s 183.177.77.102/32 -j DROP
iptables -A INPUT -s 183.177.79.73/32 -j DROP
iptables -A INPUT -s 183.177.79.75/32 -j DROP
iptables -A INPUT -s 183.177.79.77/32 -j DROP
iptables -A INPUT -s 183.177.79.79/32 -j DROP
iptables -A INPUT -s 183.177.79.97/32 -j DROP
iptables -A INPUT -s 183.177.79.99/32 -j DROP
iptables -A INPUT -s 183.177.79.101/32 -j DROP
iptables -A INPUT -s 183.177.79.103/32 -j DROP
iptables -A INPUT -s 183.177.79.105/32 -j DROP
iptables -A INPUT -s 183.177.79.107/32 -j DROP
iptables -A INPUT -s 183.177.79.109/32 -j DROP
iptables -A INPUT -s 183.177.79.111/32 -j DROP
iptables -A INPUT -s 183.177.79.113/32 -j DROP
iptables -A INPUT -s 183.177.79.115/32 -j DROP
iptables -A INPUT -s 183.177.79.117/32 -j DROP
iptables -A INPUT -s 183.177.79.119/32 -j DROP
iptables -A INPUT -s 183.177.79.121/32 -j DROP
iptables -A INPUT -s 183.177.79.123/32 -j DROP
iptables -A INPUT -s 183.177.79.125/32 -j DROP
iptables -A INPUT -s 183.177.79.127/32 -j DROP
iptables -A INPUT -s 183.177.94.0/23 -j DROP
iptables -A INPUT -s 183.182.1.0/24 -j DROP
iptables -A INPUT -s 183.182.26.0/24 -j DROP
iptables -A INPUT -s 183.182.31.0/24 -j DROP
iptables -A INPUT -s 183.182.79.0/24 -j DROP
iptables -A INPUT -s 184.26.170.0/23 -j DROP
iptables -A INPUT -s 184.28.66.0/23 -j DROP
iptables -A INPUT -s 184.29.38.0/24 -j DROP
iptables -A INPUT -s 184.29.40.0/23 -j DROP
iptables -A INPUT -s 184.50.176.0/20 -j DROP
iptables -A INPUT -s 184.51.152.0/24 -j DROP
iptables -A INPUT -s 184.84.196.0/22 -j DROP
iptables -A INPUT -s 184.86.232.0/22 -j DROP
iptables -A INPUT -s 184.105.64.2/32 -j DROP
iptables -A INPUT -s 184.105.64.6/32 -j DROP
iptables -A INPUT -s 185.129.65.224/28 -j DROP
iptables -A INPUT -s 185.132.78.0/24 -j DROP
iptables -A INPUT -s 185.215.215.0/24 -j DROP
iptables -A INPUT -s 185.221.68.44/31 -j DROP
iptables -A INPUT -s 185.221.70.44/31 -j DROP
iptables -A INPUT -s 185.226.94.0/24 -j DROP
iptables -A INPUT -s 188.172.208.0/24 -j DROP
iptables -A INPUT -s 192.72.3.0/24 -j DROP
iptables -A INPUT -s 192.72.4.0/22 -j DROP
iptables -A INPUT -s 192.72.8.0/21 -j DROP
iptables -A INPUT -s 192.72.16.0/20 -j DROP
iptables -A INPUT -s 192.72.32.0/19 -j DROP
iptables -A INPUT -s 192.72.64.0/19 -j DROP
iptables -A INPUT -s 192.72.96.0/20 -j DROP
iptables -A INPUT -s 192.72.112.0/21 -j DROP
iptables -A INPUT -s 192.72.120.0/22 -j DROP
iptables -A INPUT -s 192.72.125.0/24 -j DROP
iptables -A INPUT -s 192.72.126.0/23 -j DROP
iptables -A INPUT -s 192.72.128.0/18 -j DROP
iptables -A INPUT -s 192.72.192.0/19 -j DROP
iptables -A INPUT -s 192.72.224.0/20 -j DROP
iptables -A INPUT -s 192.72.240.0/21 -j DROP
iptables -A INPUT -s 192.72.248.0/22 -j DROP
iptables -A INPUT -s 192.72.252.0/24 -j DROP
iptables -A INPUT -s 192.83.166.0/23 -j DROP
iptables -A INPUT -s 192.83.168.0/21 -j DROP
iptables -A INPUT -s 192.83.176.0/20 -j DROP
iptables -A INPUT -s 192.83.192.0/22 -j DROP
iptables -A INPUT -s 192.83.196.0/24 -j DROP
iptables -A INPUT -s 192.154.200.0/24 -j DROP
iptables -A INPUT -s 192.188.171.0/24 -j DROP
iptables -A INPUT -s 192.192.0.0/16 -j DROP
iptables -A INPUT -s 192.230.120.0/24 -j DROP
iptables -A INPUT -s 192.253.254.128/25 -j DROP
iptables -A INPUT -s 194.117.103.2/32 -j DROP
iptables -A INPUT -s 194.117.103.10/31 -j DROP
iptables -A INPUT -s 194.117.103.15/32 -j DROP
iptables -A INPUT -s 194.117.103.17/32 -j DROP
iptables -A INPUT -s 194.117.103.19/32 -j DROP
iptables -A INPUT -s 194.117.103.21/32 -j DROP
iptables -A INPUT -s 194.117.103.24/31 -j DROP
iptables -A INPUT -s 194.117.103.55/32 -j DROP
iptables -A INPUT -s 194.117.103.80/32 -j DROP
iptables -A INPUT -s 194.117.103.87/32 -j DROP
iptables -A INPUT -s 194.117.103.135/32 -j DROP
iptables -A INPUT -s 194.117.103.156/32 -j DROP
iptables -A INPUT -s 194.117.103.184/32 -j DROP
iptables -A INPUT -s 194.117.103.190/32 -j DROP
iptables -A INPUT -s 194.117.103.194/32 -j DROP
iptables -A INPUT -s 195.112.167.64/30 -j DROP
iptables -A INPUT -s 195.112.167.164/30 -j DROP
iptables -A INPUT -s 195.112.176.0/30 -j DROP
iptables -A INPUT -s 195.112.177.88/30 -j DROP
iptables -A INPUT -s 195.112.177.128/30 -j DROP
iptables -A INPUT -s 195.112.177.140/30 -j DROP
iptables -A INPUT -s 195.112.177.216/30 -j DROP
iptables -A INPUT -s 198.64.0.20/32 -j DROP
iptables -A INPUT -s 198.64.1.74/31 -j DROP
iptables -A INPUT -s 198.64.2.74/31 -j DROP
iptables -A INPUT -s 198.64.3.74/31 -j DROP
iptables -A INPUT -s 198.206.164.150/32 -j DROP
iptables -A INPUT -s 198.206.164.152/30 -j DROP
iptables -A INPUT -s 198.206.164.208/31 -j DROP
iptables -A INPUT -s 202.2.52.0/22 -j DROP
iptables -A INPUT -s 202.3.160.0/19 -j DROP
iptables -A INPUT -s 202.5.4.0/23 -j DROP
iptables -A INPUT -s 202.5.8.0/21 -j DROP
iptables -A INPUT -s 202.5.224.0/19 -j DROP
iptables -A INPUT -s 202.6.104.0/23 -j DROP
iptables -A INPUT -s 202.8.14.0/23 -j DROP
iptables -A INPUT -s 202.12.76.0/22 -j DROP
iptables -A INPUT -s 202.39.0.0/16 -j DROP
iptables -A INPUT -s 202.41.146.0/24 -j DROP
iptables -A INPUT -s 202.43.192.0/21 -j DROP
iptables -A INPUT -s 202.47.205.0/24 -j DROP
iptables -A INPUT -s 202.47.206.0/24 -j DROP
iptables -A INPUT -s 202.52.96.192/27 -j DROP
iptables -A INPUT -s 202.55.224.48/28 -j DROP
iptables -A INPUT -s 202.55.224.64/26 -j DROP
iptables -A INPUT -s 202.55.224.128/25 -j DROP
iptables -A INPUT -s 202.55.225.0/24 -j DROP
iptables -A INPUT -s 202.55.226.0/24 -j DROP
iptables -A INPUT -s 202.55.227.0/28 -j DROP
iptables -A INPUT -s 202.55.227.32/27 -j DROP
iptables -A INPUT -s 202.55.227.64/26 -j DROP
iptables -A INPUT -s 202.55.227.128/25 -j DROP
iptables -A INPUT -s 202.55.228.0/25 -j DROP
iptables -A INPUT -s 202.55.228.128/26 -j DROP
iptables -A INPUT -s 202.55.228.192/28 -j DROP
iptables -A INPUT -s 202.55.228.224/27 -j DROP
iptables -A INPUT -s 202.55.229.0/26 -j DROP
iptables -A INPUT -s 202.55.229.64/27 -j DROP
iptables -A INPUT -s 202.55.229.112/28 -j DROP
iptables -A INPUT -s 202.55.229.128/27 -j DROP
iptables -A INPUT -s 202.55.229.160/28 -j DROP
iptables -A INPUT -s 202.55.229.192/26 -j DROP
iptables -A INPUT -s 202.55.230.0/23 -j DROP
iptables -A INPUT -s 202.55.232.0/22 -j DROP
iptables -A INPUT -s 202.55.236.0/23 -j DROP
iptables -A INPUT -s 202.55.238.0/26 -j DROP
iptables -A INPUT -s 202.55.238.72/29 -j DROP
iptables -A INPUT -s 202.55.238.80/28 -j DROP
iptables -A INPUT -s 202.55.238.96/27 -j DROP
iptables -A INPUT -s 202.55.238.128/25 -j DROP
iptables -A INPUT -s 202.55.239.0/24 -j DROP
iptables -A INPUT -s 202.55.240.0/25 -j DROP
iptables -A INPUT -s 202.55.240.192/26 -j DROP
iptables -A INPUT -s 202.55.241.0/24 -j DROP
iptables -A INPUT -s 202.55.242.0/23 -j DROP
iptables -A INPUT -s 202.55.244.0/22 -j DROP
iptables -A INPUT -s 202.55.248.0/21 -j DROP
iptables -A INPUT -s 202.59.250.0/23 -j DROP
iptables -A INPUT -s 202.66.207.0/24 -j DROP
iptables -A INPUT -s 202.74.126.0/24 -j DROP
iptables -A INPUT -s 202.74.127.0/25 -j DROP
iptables -A INPUT -s 202.74.127.128/27 -j DROP
iptables -A INPUT -s 202.74.127.160/28 -j DROP
iptables -A INPUT -s 202.74.127.176/29 -j DROP
iptables -A INPUT -s 202.74.127.184/30 -j DROP
iptables -A INPUT -s 202.76.86.0/24 -j DROP
iptables -A INPUT -s 202.80.14.0/23 -j DROP
iptables -A INPUT -s 202.80.104.0/21 -j DROP
iptables -A INPUT -s 202.88.20.0/23 -j DROP
iptables -A INPUT -s 202.88.27.0/24 -j DROP
iptables -A INPUT -s 202.89.121.0/24 -j DROP
iptables -A INPUT -s 202.89.122.0/23 -j DROP
iptables -A INPUT -s 202.123.124.0/22 -j DROP
iptables -A INPUT -s 202.126.64.0/20 -j DROP
iptables -A INPUT -s 202.131.63.0/24 -j DROP
iptables -A INPUT -s 202.132.0.0/16 -j DROP
iptables -A INPUT -s 202.133.224.0/20 -j DROP
iptables -A INPUT -s 202.133.240.0/22 -j DROP
iptables -A INPUT -s 202.133.244.0/23 -j DROP
iptables -A INPUT -s 202.133.247.128/25 -j DROP
iptables -A INPUT -s 202.133.248.64/26 -j DROP
iptables -A INPUT -s 202.133.248.144/28 -j DROP
iptables -A INPUT -s 202.133.248.160/28 -j DROP
iptables -A INPUT -s 202.133.248.192/26 -j DROP
iptables -A INPUT -s 202.133.249.0/25 -j DROP
iptables -A INPUT -s 202.133.249.144/28 -j DROP
iptables -A INPUT -s 202.133.249.160/28 -j DROP
iptables -A INPUT -s 202.133.249.192/26 -j DROP
iptables -A INPUT -s 202.133.250.0/24 -j DROP
iptables -A INPUT -s 202.133.251.16/28 -j DROP
iptables -A INPUT -s 202.133.251.32/27 -j DROP
iptables -A INPUT -s 202.133.251.64/26 -j DROP
iptables -A INPUT -s 202.133.251.128/25 -j DROP
iptables -A INPUT -s 202.133.252.0/22 -j DROP
iptables -A INPUT -s 202.135.124.0/22 -j DROP
iptables -A INPUT -s 202.135.131.0/24 -j DROP
iptables -A INPUT -s 202.140.160.0/19 -j DROP
iptables -A INPUT -s 202.144.208.0/20 -j DROP
iptables -A INPUT -s 202.145.32.0/19 -j DROP
iptables -A INPUT -s 202.145.64.0/18 -j DROP
iptables -A INPUT -s 202.145.128.0/17 -j DROP
iptables -A INPUT -s 202.147.24.1/32 -j DROP
iptables -A INPUT -s 202.147.24.34/32 -j DROP
iptables -A INPUT -s 202.147.24.50/32 -j DROP
iptables -A INPUT -s 202.147.24.85/32 -j DROP
iptables -A INPUT -s 202.147.24.91/32 -j DROP
iptables -A INPUT -s 202.147.26.0/29 -j DROP
iptables -A INPUT -s 202.147.26.232/29 -j DROP
iptables -A INPUT -s 202.147.26.240/28 -j DROP
iptables -A INPUT -s 202.147.27.16/28 -j DROP
iptables -A INPUT -s 202.147.27.32/28 -j DROP
iptables -A INPUT -s 202.147.27.96/28 -j DROP
iptables -A INPUT -s 202.147.27.144/28 -j DROP
iptables -A INPUT -s 202.147.27.176/28 -j DROP
iptables -A INPUT -s 202.147.27.208/28 -j DROP
iptables -A INPUT -s 202.147.28.64/27 -j DROP
iptables -A INPUT -s 202.147.29.192/27 -j DROP
iptables -A INPUT -s 202.147.30.160/29 -j DROP
iptables -A INPUT -s 202.147.30.176/28 -j DROP
iptables -A INPUT -s 202.147.30.192/27 -j DROP
iptables -A INPUT -s 202.147.30.224/28 -j DROP
iptables -A INPUT -s 202.147.31.32/28 -j DROP
iptables -A INPUT -s 202.147.31.160/28 -j DROP
iptables -A INPUT -s 202.147.31.192/27 -j DROP
iptables -A INPUT -s 202.147.49.1/32 -j DROP
iptables -A INPUT -s 202.147.49.2/31 -j DROP
iptables -A INPUT -s 202.147.49.4/30 -j DROP
iptables -A INPUT -s 202.147.49.11/32 -j DROP
iptables -A INPUT -s 202.147.49.34/31 -j DROP
iptables -A INPUT -s 202.147.49.50/32 -j DROP
iptables -A INPUT -s 202.147.49.98/32 -j DROP
iptables -A INPUT -s 202.148.208.0/20 -j DROP
iptables -A INPUT -s 202.151.48.0/20 -j DROP
iptables -A INPUT -s 202.153.160.0/23 -j DROP
iptables -A INPUT -s 202.153.162.0/25 -j DROP
iptables -A INPUT -s 202.153.162.128/26 -j DROP
iptables -A INPUT -s 202.153.162.192/27 -j DROP
iptables -A INPUT -s 202.153.163.0/24 -j DROP
iptables -A INPUT -s 202.153.164.0/26 -j DROP
iptables -A INPUT -s 202.153.164.64/27 -j DROP
iptables -A INPUT -s 202.153.164.128/25 -j DROP
iptables -A INPUT -s 202.153.165.0/24 -j DROP
iptables -A INPUT -s 202.153.166.0/23 -j DROP
iptables -A INPUT -s 202.153.168.0/23 -j DROP
iptables -A INPUT -s 202.153.170.128/25 -j DROP
iptables -A INPUT -s 202.153.171.0/24 -j DROP
iptables -A INPUT -s 202.153.172.0/24 -j DROP
iptables -A INPUT -s 202.153.173.0/26 -j DROP
iptables -A INPUT -s 202.153.173.96/27 -j DROP
iptables -A INPUT -s 202.153.173.128/25 -j DROP
iptables -A INPUT -s 202.153.174.0/23 -j DROP
iptables -A INPUT -s 202.153.176.0/24 -j DROP
iptables -A INPUT -s 202.153.178.0/23 -j DROP
iptables -A INPUT -s 202.153.180.0/22 -j DROP
iptables -A INPUT -s 202.153.184.0/25 -j DROP
iptables -A INPUT -s 202.153.184.128/26 -j DROP
iptables -A INPUT -s 202.153.184.192/27 -j DROP
iptables -A INPUT -s 202.153.184.232/29 -j DROP
iptables -A INPUT -s 202.153.184.240/28 -j DROP
iptables -A INPUT -s 202.153.185.0/24 -j DROP
iptables -A INPUT -s 202.153.186.0/24 -j DROP
iptables -A INPUT -s 202.153.187.0/25 -j DROP
iptables -A INPUT -s 202.153.187.192/26 -j DROP
iptables -A INPUT -s 202.153.188.0/24 -j DROP
iptables -A INPUT -s 202.153.189.0/25 -j DROP
iptables -A INPUT -s 202.153.189.128/27 -j DROP
iptables -A INPUT -s 202.153.189.160/28 -j DROP
iptables -A INPUT -s 202.153.189.184/29 -j DROP
iptables -A INPUT -s 202.153.190.0/24 -j DROP
iptables -A INPUT -s 202.153.191.0/25 -j DROP
iptables -A INPUT -s 202.153.191.128/27 -j DROP
iptables -A INPUT -s 202.153.191.160/29 -j DROP
iptables -A INPUT -s 202.153.191.176/28 -j DROP
iptables -A INPUT -s 202.153.191.192/26 -j DROP
iptables -A INPUT -s 202.153.192.0/24 -j DROP
iptables -A INPUT -s 202.153.193.32/27 -j DROP
iptables -A INPUT -s 202.153.193.64/27 -j DROP
iptables -A INPUT -s 202.153.193.112/28 -j DROP
iptables -A INPUT -s 202.153.193.128/25 -j DROP
iptables -A INPUT -s 202.153.194.0/25 -j DROP
iptables -A INPUT -s 202.153.194.128/26 -j DROP
iptables -A INPUT -s 202.153.194.224/27 -j DROP
iptables -A INPUT -s 202.153.195.0/24 -j DROP
iptables -A INPUT -s 202.153.196.0/23 -j DROP
iptables -A INPUT -s 202.153.198.0/25 -j DROP
iptables -A INPUT -s 202.153.198.128/27 -j DROP
iptables -A INPUT -s 202.153.198.176/28 -j DROP
iptables -A INPUT -s 202.153.198.192/26 -j DROP
iptables -A INPUT -s 202.153.199.0/26 -j DROP
iptables -A INPUT -s 202.153.199.64/27 -j DROP
iptables -A INPUT -s 202.153.199.96/28 -j DROP
iptables -A INPUT -s 202.153.199.128/25 -j DROP
iptables -A INPUT -s 202.153.200.0/23 -j DROP
iptables -A INPUT -s 202.153.202.0/26 -j DROP
iptables -A INPUT -s 202.153.202.64/28 -j DROP
iptables -A INPUT -s 202.153.202.96/27 -j DROP
iptables -A INPUT -s 202.153.202.128/25 -j DROP
iptables -A INPUT -s 202.153.203.32/27 -j DROP
iptables -A INPUT -s 202.153.203.64/28 -j DROP
iptables -A INPUT -s 202.153.203.96/27 -j DROP
iptables -A INPUT -s 202.153.203.128/25 -j DROP
iptables -A INPUT -s 202.153.204.0/27 -j DROP
iptables -A INPUT -s 202.153.204.32/28 -j DROP
iptables -A INPUT -s 202.153.204.56/29 -j DROP
iptables -A INPUT -s 202.153.204.64/26 -j DROP
iptables -A INPUT -s 202.153.204.128/26 -j DROP
iptables -A INPUT -s 202.153.204.192/28 -j DROP
iptables -A INPUT -s 202.153.204.208/29 -j DROP
iptables -A INPUT -s 202.153.204.224/27 -j DROP
iptables -A INPUT -s 202.153.205.0/25 -j DROP
iptables -A INPUT -s 202.153.205.128/26 -j DROP
iptables -A INPUT -s 202.153.205.192/27 -j DROP
iptables -A INPUT -s 202.153.205.224/28 -j DROP
iptables -A INPUT -s 202.153.206.0/26 -j DROP
iptables -A INPUT -s 202.153.206.64/28 -j DROP
iptables -A INPUT -s 202.153.206.96/27 -j DROP
iptables -A INPUT -s 202.153.206.128/25 -j DROP
iptables -A INPUT -s 202.153.207.0/24 -j DROP
iptables -A INPUT -s 202.154.192.0/19 -j DROP
iptables -A INPUT -s 202.160.64.0/19 -j DROP
iptables -A INPUT -s 202.165.128.0/21 -j DROP
iptables -A INPUT -s 202.165.136.0/23 -j DROP
iptables -A INPUT -s 202.165.138.8/29 -j DROP
iptables -A INPUT -s 202.165.138.16/28 -j DROP
iptables -A INPUT -s 202.165.138.32/27 -j DROP
iptables -A INPUT -s 202.165.138.64/26 -j DROP
iptables -A INPUT -s 202.165.138.128/25 -j DROP
iptables -A INPUT -s 202.165.139.0/24 -j DROP
iptables -A INPUT -s 202.165.140.0/29 -j DROP
iptables -A INPUT -s 202.165.140.24/29 -j DROP
iptables -A INPUT -s 202.165.140.32/27 -j DROP
iptables -A INPUT -s 202.165.140.64/26 -j DROP
iptables -A INPUT -s 202.165.140.128/25 -j DROP
iptables -A INPUT -s 202.165.141.0/26 -j DROP
iptables -A INPUT -s 202.165.141.64/28 -j DROP
iptables -A INPUT -s 202.165.141.96/27 -j DROP
iptables -A INPUT -s 202.165.141.128/26 -j DROP
iptables -A INPUT -s 202.165.141.208/28 -j DROP
iptables -A INPUT -s 202.165.141.224/27 -j DROP
iptables -A INPUT -s 202.165.142.0/25 -j DROP
iptables -A INPUT -s 202.165.142.192/26 -j DROP
iptables -A INPUT -s 202.165.143.0/24 -j DROP
iptables -A INPUT -s 202.165.144.0/20 -j DROP
iptables -A INPUT -s 202.167.75.0/24 -j DROP
iptables -A INPUT -s 202.167.99.0/24 -j DROP
iptables -A INPUT -s 202.167.160.0/24 -j DROP
iptables -A INPUT -s 202.168.192.0/20 -j DROP
iptables -A INPUT -s 202.169.160.0/20 -j DROP
iptables -A INPUT -s 202.173.32.0/19 -j DROP
iptables -A INPUT -s 202.174.4.0/24 -j DROP
iptables -A INPUT -s 202.174.16.0/20 -j DROP
iptables -A INPUT -s 202.178.128.0/17 -j DROP
iptables -A INPUT -s 202.192.242.0/24 -j DROP
iptables -A INPUT -s 203.14.212.0/24 -j DROP
iptables -A INPUT -s 203.64.0.0/13 -j DROP
iptables -A INPUT -s 203.72.0.0/14 -j DROP
iptables -A INPUT -s 203.77.0.0/17 -j DROP
iptables -A INPUT -s 203.78.0.0/22 -j DROP
iptables -A INPUT -s 203.78.176.0/20 -j DROP
iptables -A INPUT -s 203.79.128.0/17 -j DROP
iptables -A INPUT -s 203.83.216.0/23 -j DROP
iptables -A INPUT -s 203.84.144.0/21 -j DROP
iptables -A INPUT -s 203.84.209.93/32 -j DROP
iptables -A INPUT -s 203.84.211.41/32 -j DROP
iptables -A INPUT -s 203.84.211.43/32 -j DROP
iptables -A INPUT -s 203.91.0.0/19 -j DROP
iptables -A INPUT -s 203.92.208.0/24 -j DROP
iptables -A INPUT -s 203.92.219.206/32 -j DROP
iptables -A INPUT -s 203.98.192.0/31 -j DROP
iptables -A INPUT -s 203.98.192.20/30 -j DROP
iptables -A INPUT -s 203.99.254.0/24 -j DROP
iptables -A INPUT -s 203.100.129.9/32 -j DROP
iptables -A INPUT -s 203.100.129.10/32 -j DROP
iptables -A INPUT -s 203.100.129.17/32 -j DROP
iptables -A INPUT -s 203.100.129.18/32 -j DROP
iptables -A INPUT -s 203.100.129.25/32 -j DROP
iptables -A INPUT -s 203.100.129.29/32 -j DROP
iptables -A INPUT -s 203.100.129.30/32 -j DROP
iptables -A INPUT -s 203.100.129.33/32 -j DROP
iptables -A INPUT -s 203.100.129.41/32 -j DROP
iptables -A INPUT -s 203.100.129.81/32 -j DROP
iptables -A INPUT -s 203.100.130.161/32 -j DROP
iptables -A INPUT -s 203.100.130.162/32 -j DROP
iptables -A INPUT -s 203.100.132.17/32 -j DROP
iptables -A INPUT -s 203.100.148.54/32 -j DROP
iptables -A INPUT -s 203.100.152.58/32 -j DROP
iptables -A INPUT -s 203.100.152.101/32 -j DROP
iptables -A INPUT -s 203.100.155.2/31 -j DROP
iptables -A INPUT -s 203.100.155.4/30 -j DROP
iptables -A INPUT -s 203.100.155.8/31 -j DROP
iptables -A INPUT -s 203.100.155.10/32 -j DROP
iptables -A INPUT -s 203.100.155.18/31 -j DROP
iptables -A INPUT -s 203.100.155.20/32 -j DROP
iptables -A INPUT -s 203.100.155.33/32 -j DROP
iptables -A INPUT -s 203.100.155.34/32 -j DROP
iptables -A INPUT -s 203.100.155.37/32 -j DROP
iptables -A INPUT -s 203.100.155.38/32 -j DROP
iptables -A INPUT -s 203.100.155.41/32 -j DROP
iptables -A INPUT -s 203.100.155.45/32 -j DROP
iptables -A INPUT -s 203.100.155.46/32 -j DROP
iptables -A INPUT -s 203.100.155.48/31 -j DROP
iptables -A INPUT -s 203.100.155.51/32 -j DROP
iptables -A INPUT -s 203.100.155.53/32 -j DROP
iptables -A INPUT -s 203.100.155.54/32 -j DROP
iptables -A INPUT -s 203.100.155.61/32 -j DROP
iptables -A INPUT -s 203.100.155.65/32 -j DROP
iptables -A INPUT -s 203.100.155.74/31 -j DROP
iptables -A INPUT -s 203.100.155.76/31 -j DROP
iptables -A INPUT -s 203.100.155.80/32 -j DROP
iptables -A INPUT -s 203.100.155.89/32 -j DROP
iptables -A INPUT -s 203.100.155.90/31 -j DROP
iptables -A INPUT -s 203.100.155.96/32 -j DROP
iptables -A INPUT -s 203.100.155.98/32 -j DROP
iptables -A INPUT -s 203.100.155.100/31 -j DROP
iptables -A INPUT -s 203.100.155.107/32 -j DROP
iptables -A INPUT -s 203.100.155.121/32 -j DROP
iptables -A INPUT -s 203.100.155.137/32 -j DROP
iptables -A INPUT -s 203.100.155.138/32 -j DROP
iptables -A INPUT -s 203.100.155.153/32 -j DROP
iptables -A INPUT -s 203.100.155.154/32 -j DROP
iptables -A INPUT -s 203.100.155.161/32 -j DROP
iptables -A INPUT -s 203.100.155.162/32 -j DROP
iptables -A INPUT -s 203.100.155.189/32 -j DROP
iptables -A INPUT -s 203.100.155.193/32 -j DROP
iptables -A INPUT -s 203.100.155.194/32 -j DROP
iptables -A INPUT -s 203.100.155.197/32 -j DROP
iptables -A INPUT -s 203.100.155.198/32 -j DROP
iptables -A INPUT -s 203.100.155.224/30 -j DROP
iptables -A INPUT -s 203.100.155.229/32 -j DROP
iptables -A INPUT -s 203.100.155.233/32 -j DROP
iptables -A INPUT -s 203.100.155.234/31 -j DROP
iptables -A INPUT -s 203.100.155.238/31 -j DROP
iptables -A INPUT -s 203.100.155.248/32 -j DROP
iptables -A INPUT -s 203.100.156.34/32 -j DROP
iptables -A INPUT -s 203.105.224.0/19 -j DROP
iptables -A INPUT -s 203.111.208.0/20 -j DROP
iptables -A INPUT -s 203.118.224.0/20 -j DROP
iptables -A INPUT -s 203.119.3.0/24 -j DROP
iptables -A INPUT -s 203.119.94.0/24 -j DROP
iptables -A INPUT -s 203.121.224.0/19 -j DROP
iptables -A INPUT -s 203.133.0.0/17 -j DROP
iptables -A INPUT -s 203.135.64.0/19 -j DROP
iptables -A INPUT -s 203.145.192.0/19 -j DROP
iptables -A INPUT -s 203.148.92.0/24 -j DROP
iptables -A INPUT -s 203.160.144.0/20 -j DROP
iptables -A INPUT -s 203.160.224.0/19 -j DROP
iptables -A INPUT -s 203.161.176.0/23 -j DROP
iptables -A INPUT -s 203.163.72.0/24 -j DROP
iptables -A INPUT -s 203.163.83.0/28 -j DROP
iptables -A INPUT -s 203.163.83.208/28 -j DROP
iptables -A INPUT -s 203.163.90.0/25 -j DROP
iptables -A INPUT -s 203.163.119.0/26 -j DROP
iptables -A INPUT -s 203.163.122.131/32 -j DROP
iptables -A INPUT -s 203.163.192.0/19 -j DROP
iptables -A INPUT -s 203.167.15.0/24 -j DROP
iptables -A INPUT -s 203.187.0.0/17 -j DROP
iptables -A INPUT -s 203.188.192.0/21 -j DROP
iptables -A INPUT -s 203.188.200.0/22 -j DROP
iptables -A INPUT -s 203.188.204.0/23 -j DROP
iptables -A INPUT -s 203.188.206.129/32 -j DROP
iptables -A INPUT -s 203.188.206.130/31 -j DROP
iptables -A INPUT -s 203.188.206.132/31 -j DROP
iptables -A INPUT -s 203.188.206.142/31 -j DROP
iptables -A INPUT -s 203.188.206.144/30 -j DROP
iptables -A INPUT -s 203.188.206.148/31 -j DROP
iptables -A INPUT -s 203.188.206.150/32 -j DROP
iptables -A INPUT -s 203.188.207.0/24 -j DROP
iptables -A INPUT -s 203.190.16.0/21 -j DROP
iptables -A INPUT -s 203.192.134.154/32 -j DROP
iptables -A INPUT -s 203.192.134.178/32 -j DROP
iptables -A INPUT -s 203.192.135.154/32 -j DROP
iptables -A INPUT -s 203.192.143.0/24 -j DROP
iptables -A INPUT -s 203.192.151.16/28 -j DROP
iptables -A INPUT -s 203.192.151.32/27 -j DROP
iptables -A INPUT -s 203.192.152.16/28 -j DROP
iptables -A INPUT -s 203.192.152.48/28 -j DROP
iptables -A INPUT -s 203.192.152.80/29 -j DROP
iptables -A INPUT -s 203.192.152.96/29 -j DROP
iptables -A INPUT -s 203.192.152.112/28 -j DROP
iptables -A INPUT -s 203.192.152.176/28 -j DROP
iptables -A INPUT -s 203.192.152.224/29 -j DROP
iptables -A INPUT -s 203.192.152.240/28 -j DROP
iptables -A INPUT -s 203.192.160.66/32 -j DROP
iptables -A INPUT -s 203.192.162.16/28 -j DROP
iptables -A INPUT -s 203.192.162.64/27 -j DROP
iptables -A INPUT -s 203.192.162.128/27 -j DROP
iptables -A INPUT -s 203.192.162.192/29 -j DROP
iptables -A INPUT -s 203.192.170.0/24 -j DROP
iptables -A INPUT -s 203.192.171.8/29 -j DROP
iptables -A INPUT -s 203.192.171.32/27 -j DROP
iptables -A INPUT -s 203.192.171.64/28 -j DROP
iptables -A INPUT -s 203.192.171.160/28 -j DROP
iptables -A INPUT -s 203.192.171.176/29 -j DROP
iptables -A INPUT -s 203.192.172.0/27 -j DROP
iptables -A INPUT -s 203.192.172.80/28 -j DROP
iptables -A INPUT -s 203.192.172.160/27 -j DROP
iptables -A INPUT -s 203.192.172.216/29 -j DROP
iptables -A INPUT -s 203.192.177.80/29 -j DROP
iptables -A INPUT -s 203.192.181.40/29 -j DROP
iptables -A INPUT -s 203.192.181.56/29 -j DROP
iptables -A INPUT -s 203.192.181.64/27 -j DROP
iptables -A INPUT -s 203.192.181.128/27 -j DROP
iptables -A INPUT -s 203.192.181.176/28 -j DROP
iptables -A INPUT -s 203.192.181.192/26 -j DROP
iptables -A INPUT -s 203.194.79.0/26 -j DROP
iptables -A INPUT -s 203.194.83.192/29 -j DROP
iptables -A INPUT -s 203.194.85.128/25 -j DROP
iptables -A INPUT -s 203.194.88.48/29 -j DROP
iptables -A INPUT -s 203.194.88.64/28 -j DROP
iptables -A INPUT -s 203.201.32.0/20 -j DROP
iptables -A INPUT -s 203.203.0.0/16 -j DROP
iptables -A INPUT -s 203.204.0.0/16 -j DROP
iptables -A INPUT -s 203.207.0.0/20 -j DROP
iptables -A INPUT -s 203.207.32.0/20 -j DROP
iptables -A INPUT -s 203.211.0.0/19 -j DROP
iptables -A INPUT -s 203.217.96.0/19 -j DROP
iptables -A INPUT -s 203.222.0.0/19 -j DROP
iptables -A INPUT -s 203.222.33.15/32 -j DROP
iptables -A INPUT -s 203.222.38.32/31 -j DROP
iptables -A INPUT -s 204.2.177.193/32 -j DROP
iptables -A INPUT -s 204.2.177.194/31 -j DROP
iptables -A INPUT -s 204.2.177.196/32 -j DROP
iptables -A INPUT -s 204.2.177.209/32 -j DROP
iptables -A INPUT -s 204.2.177.210/31 -j DROP
iptables -A INPUT -s 204.15.23.255/32 -j DROP
iptables -A INPUT -s 204.79.62.0/23 -j DROP
iptables -A INPUT -s 205.248.48.0/24 -j DROP
iptables -A INPUT -s 205.248.68.0/23 -j DROP
iptables -A INPUT -s 205.252.17.224/27 -j DROP
iptables -A INPUT -s 206.49.92.0/24 -j DROP
iptables -A INPUT -s 206.73.198.128/25 -j DROP
iptables -A INPUT -s 206.73.244.24/29 -j DROP
iptables -A INPUT -s 206.182.30.0/24 -j DROP
iptables -A INPUT -s 206.182.110.128/26 -j DROP
iptables -A INPUT -s 206.182.212.96/28 -j DROP
iptables -A INPUT -s 206.182.243.128/26 -j DROP
iptables -A INPUT -s 207.43.86.4/32 -j DROP
iptables -A INPUT -s 207.46.33.28/31 -j DROP
iptables -A INPUT -s 207.46.33.138/31 -j DROP
iptables -A INPUT -s 207.46.36.0/32 -j DROP
iptables -A INPUT -s 207.46.36.193/32 -j DROP
iptables -A INPUT -s 207.46.36.194/32 -j DROP
iptables -A INPUT -s 207.46.36.205/32 -j DROP
iptables -A INPUT -s 207.46.36.206/32 -j DROP
iptables -A INPUT -s 207.46.219.123/32 -j DROP
iptables -A INPUT -s 207.46.219.124/32 -j DROP
iptables -A INPUT -s 207.209.3.0/24 -j DROP
iptables -A INPUT -s 207.209.218.0/24 -j DROP
iptables -A INPUT -s 207.226.236.56/29 -j DROP
iptables -A INPUT -s 208.31.79.160/27 -j DROP
iptables -A INPUT -s 208.48.251.102/32 -j DROP
iptables -A INPUT -s 208.70.201.224/27 -j DROP
iptables -A INPUT -s 208.70.202.208/28 -j DROP
iptables -A INPUT -s 208.70.202.224/27 -j DROP
iptables -A INPUT -s 209.28.29.0/24 -j DROP
iptables -A INPUT -s 209.28.53.128/28 -j DROP
iptables -A INPUT -s 210.16.107.0/24 -j DROP
iptables -A INPUT -s 210.17.0.0/17 -j DROP
iptables -A INPUT -s 210.57.25.0/24 -j DROP
iptables -A INPUT -s 210.57.26.0/24 -j DROP
iptables -A INPUT -s 210.58.0.0/15 -j DROP
iptables -A INPUT -s 210.60.0.0/14 -j DROP
iptables -A INPUT -s 210.64.0.0/14 -j DROP
iptables -A INPUT -s 210.68.0.0/20 -j DROP
iptables -A INPUT -s 210.68.16.0/23 -j DROP
iptables -A INPUT -s 210.68.18.0/24 -j DROP
iptables -A INPUT -s 210.68.20.0/22 -j DROP
iptables -A INPUT -s 210.68.24.0/21 -j DROP
iptables -A INPUT -s 210.68.32.0/19 -j DROP
iptables -A INPUT -s 210.68.64.0/18 -j DROP
iptables -A INPUT -s 210.68.128.0/17 -j DROP
iptables -A INPUT -s 210.69.0.0/16 -j DROP
iptables -A INPUT -s 210.70.0.0/15 -j DROP
iptables -A INPUT -s 210.80.0.4/31 -j DROP
iptables -A INPUT -s 210.80.0.112/32 -j DROP
iptables -A INPUT -s 210.80.1.6/31 -j DROP
iptables -A INPUT -s 210.80.1.9/32 -j DROP
iptables -A INPUT -s 210.80.1.14/31 -j DROP
iptables -A INPUT -s 210.80.1.16/31 -j DROP
iptables -A INPUT -s 210.80.1.81/32 -j DROP
iptables -A INPUT -s 210.80.1.102/32 -j DROP
iptables -A INPUT -s 210.80.1.145/32 -j DROP
iptables -A INPUT -s 210.80.1.218/31 -j DROP
iptables -A INPUT -s 210.80.2.1/32 -j DROP
iptables -A INPUT -s 210.80.2.2/32 -j DROP
iptables -A INPUT -s 210.80.2.9/32 -j DROP
iptables -A INPUT -s 210.80.2.10/32 -j DROP
iptables -A INPUT -s 210.80.2.17/32 -j DROP
iptables -A INPUT -s 210.80.2.18/32 -j DROP
iptables -A INPUT -s 210.80.2.33/32 -j DROP
iptables -A INPUT -s 210.80.2.34/32 -j DROP
iptables -A INPUT -s 210.80.2.37/32 -j DROP
iptables -A INPUT -s 210.80.2.38/32 -j DROP
iptables -A INPUT -s 210.80.2.41/32 -j DROP
iptables -A INPUT -s 210.80.2.42/32 -j DROP
iptables -A INPUT -s 210.80.2.45/32 -j DROP
iptables -A INPUT -s 210.80.2.46/32 -j DROP
iptables -A INPUT -s 210.80.2.49/32 -j DROP
iptables -A INPUT -s 210.80.2.50/32 -j DROP
iptables -A INPUT -s 210.80.2.61/32 -j DROP
iptables -A INPUT -s 210.80.2.62/32 -j DROP
iptables -A INPUT -s 210.80.2.65/32 -j DROP
iptables -A INPUT -s 210.80.2.66/32 -j DROP
iptables -A INPUT -s 210.80.2.69/32 -j DROP
iptables -A INPUT -s 210.80.2.70/32 -j DROP
iptables -A INPUT -s 210.80.2.97/32 -j DROP
iptables -A INPUT -s 210.80.2.98/32 -j DROP
iptables -A INPUT -s 210.80.2.101/32 -j DROP
iptables -A INPUT -s 210.80.2.102/32 -j DROP
iptables -A INPUT -s 210.80.2.105/32 -j DROP
iptables -A INPUT -s 210.80.2.106/32 -j DROP
iptables -A INPUT -s 210.80.2.109/32 -j DROP
iptables -A INPUT -s 210.80.2.110/32 -j DROP
iptables -A INPUT -s 210.80.2.113/32 -j DROP
iptables -A INPUT -s 210.80.2.114/32 -j DROP
iptables -A INPUT -s 210.80.2.117/32 -j DROP
iptables -A INPUT -s 210.80.2.118/32 -j DROP
iptables -A INPUT -s 210.80.2.121/32 -j DROP
iptables -A INPUT -s 210.80.2.122/32 -j DROP
iptables -A INPUT -s 210.80.2.125/32 -j DROP
iptables -A INPUT -s 210.80.2.126/32 -j DROP
iptables -A INPUT -s 210.80.2.149/32 -j DROP
iptables -A INPUT -s 210.80.2.150/32 -j DROP
iptables -A INPUT -s 210.80.2.153/32 -j DROP
iptables -A INPUT -s 210.80.2.154/32 -j DROP
iptables -A INPUT -s 210.80.38.169/32 -j DROP
iptables -A INPUT -s 210.80.38.170/32 -j DROP
iptables -A INPUT -s 210.80.38.173/32 -j DROP
iptables -A INPUT -s 210.80.38.174/32 -j DROP
iptables -A INPUT -s 210.80.38.245/32 -j DROP
iptables -A INPUT -s 210.80.38.246/32 -j DROP
iptables -A INPUT -s 210.80.38.249/32 -j DROP
iptables -A INPUT -s 210.80.38.250/32 -j DROP
iptables -A INPUT -s 210.80.49.226/32 -j DROP
iptables -A INPUT -s 210.80.49.234/32 -j DROP
iptables -A INPUT -s 210.80.49.238/32 -j DROP
iptables -A INPUT -s 210.80.49.242/32 -j DROP
iptables -A INPUT -s 210.80.50.130/32 -j DROP
iptables -A INPUT -s 210.80.51.10/32 -j DROP
iptables -A INPUT -s 210.80.64.0/23 -j DROP
iptables -A INPUT -s 210.80.66.0/25 -j DROP
iptables -A INPUT -s 210.80.67.0/26 -j DROP
iptables -A INPUT -s 210.80.67.64/27 -j DROP
iptables -A INPUT -s 210.80.67.128/25 -j DROP
iptables -A INPUT -s 210.80.68.0/22 -j DROP
iptables -A INPUT -s 210.80.72.0/23 -j DROP
iptables -A INPUT -s 210.80.74.0/24 -j DROP
iptables -A INPUT -s 210.80.75.32/27 -j DROP
iptables -A INPUT -s 210.80.75.64/26 -j DROP
iptables -A INPUT -s 210.80.75.128/26 -j DROP
iptables -A INPUT -s 210.80.76.0/23 -j DROP
iptables -A INPUT -s 210.80.78.0/25 -j DROP
iptables -A INPUT -s 210.80.78.128/27 -j DROP
iptables -A INPUT -s 210.80.78.168/29 -j DROP
iptables -A INPUT -s 210.80.78.176/28 -j DROP
iptables -A INPUT -s 210.80.78.208/28 -j DROP
iptables -A INPUT -s 210.80.78.224/27 -j DROP
iptables -A INPUT -s 210.80.79.0/24 -j DROP
iptables -A INPUT -s 210.80.80.0/25 -j DROP
iptables -A INPUT -s 210.80.80.128/28 -j DROP
iptables -A INPUT -s 210.80.80.144/29 -j DROP
iptables -A INPUT -s 210.80.80.160/27 -j DROP
iptables -A INPUT -s 210.80.80.192/26 -j DROP
iptables -A INPUT -s 210.80.81.0/24 -j DROP
iptables -A INPUT -s 210.80.82.0/25 -j DROP
iptables -A INPUT -s 210.80.82.160/28 -j DROP
iptables -A INPUT -s 210.80.82.176/29 -j DROP
iptables -A INPUT -s 210.80.82.192/27 -j DROP
iptables -A INPUT -s 210.80.83.0/24 -j DROP
iptables -A INPUT -s 210.80.84.0/24 -j DROP
iptables -A INPUT -s 210.80.85.0/26 -j DROP
iptables -A INPUT -s 210.80.85.128/25 -j DROP
iptables -A INPUT -s 210.80.86.0/23 -j DROP
iptables -A INPUT -s 210.80.88.0/23 -j DROP
iptables -A INPUT -s 210.80.90.0/24 -j DROP
iptables -A INPUT -s 210.80.91.0/26 -j DROP
iptables -A INPUT -s 210.80.91.96/27 -j DROP
iptables -A INPUT -s 210.80.91.128/25 -j DROP
iptables -A INPUT -s 210.80.92.0/22 -j DROP
iptables -A INPUT -s 210.85.0.0/16 -j DROP
iptables -A INPUT -s 210.176.44.0/23 -j DROP
iptables -A INPUT -s 210.176.136.0/23 -j DROP
iptables -A INPUT -s 210.192.0.0/18 -j DROP
iptables -A INPUT -s 210.192.128.0/17 -j DROP
iptables -A INPUT -s 210.200.0.0/15 -j DROP
iptables -A INPUT -s 210.202.0.0/16 -j DROP
iptables -A INPUT -s 210.203.0.0/17 -j DROP
iptables -A INPUT -s 210.208.0.0/16 -j DROP
iptables -A INPUT -s 210.209.0.0/18 -j DROP
iptables -A INPUT -s 210.209.128.0/17 -j DROP
iptables -A INPUT -s 210.240.0.0/14 -j DROP
iptables -A INPUT -s 210.244.0.0/16 -j DROP
iptables -A INPUT -s 211.20.0.0/14 -j DROP
iptables -A INPUT -s 211.72.0.0/13 -j DROP
iptables -A INPUT -s 212.22.248.0/23 -j DROP
iptables -A INPUT -s 212.22.250.0/24 -j DROP
iptables -A INPUT -s 212.63.181.148/30 -j DROP
iptables -A INPUT -s 212.63.181.236/30 -j DROP
iptables -A INPUT -s 212.63.183.26/32 -j DROP
iptables -A INPUT -s 212.63.183.30/32 -j DROP
iptables -A INPUT -s 212.63.183.51/32 -j DROP
iptables -A INPUT -s 212.63.183.65/32 -j DROP
iptables -A INPUT -s 212.63.183.69/32 -j DROP
iptables -A INPUT -s 212.63.183.180/30 -j DROP
iptables -A INPUT -s 213.155.131.231/32 -j DROP
iptables -A INPUT -s 213.155.131.233/32 -j DROP
iptables -A INPUT -s 213.155.133.86/31 -j DROP
iptables -A INPUT -s 216.136.183.0/27 -j DROP
iptables -A INPUT -s 216.179.150.0/24 -j DROP
iptables -A INPUT -s 216.179.226.0/24 -j DROP
iptables -A INPUT -s 216.200.146.192/26 -j DROP
iptables -A INPUT -s 216.218.252.237/32 -j DROP
iptables -A INPUT -s 217.146.179.231/32 -j DROP
iptables -A INPUT -s 217.146.179.232/29 -j DROP
iptables -A INPUT -s 217.146.179.240/32 -j DROP
iptables -A INPUT -s 218.32.0.0/16 -j DROP
iptables -A INPUT -s 218.34.0.0/15 -j DROP
iptables -A INPUT -s 218.160.0.0/12 -j DROP
iptables -A INPUT -s 218.184.0.0/16 -j DROP
iptables -A INPUT -s 218.187.0.0/16 -j DROP
iptables -A INPUT -s 218.189.30.192/27 -j DROP
iptables -A INPUT -s 218.210.0.0/15 -j DROP
iptables -A INPUT -s 219.68.0.0/14 -j DROP
iptables -A INPUT -s 219.80.0.0/15 -j DROP
iptables -A INPUT -s 219.84.0.0/14 -j DROP
iptables -A INPUT -s 219.90.0.0/24 -j DROP
iptables -A INPUT -s 219.90.2.0/23 -j DROP
iptables -A INPUT -s 219.90.4.0/22 -j DROP
iptables -A INPUT -s 219.90.8.0/21 -j DROP
iptables -A INPUT -s 219.90.16.0/20 -j DROP
iptables -A INPUT -s 219.90.32.0/21 -j DROP
iptables -A INPUT -s 219.90.40.0/25 -j DROP
iptables -A INPUT -s 219.90.40.192/26 -j DROP
iptables -A INPUT -s 219.90.41.0/24 -j DROP
iptables -A INPUT -s 219.90.42.0/27 -j DROP
iptables -A INPUT -s 219.90.42.64/26 -j DROP
iptables -A INPUT -s 219.90.42.128/25 -j DROP
iptables -A INPUT -s 219.90.43.0/24 -j DROP
iptables -A INPUT -s 219.90.44.0/22 -j DROP
iptables -A INPUT -s 219.90.48.0/21 -j DROP
iptables -A INPUT -s 219.90.56.0/24 -j DROP
iptables -A INPUT -s 219.90.57.0/25 -j DROP
iptables -A INPUT -s 219.90.57.128/26 -j DROP
iptables -A INPUT -s 219.90.57.224/27 -j DROP
iptables -A INPUT -s 219.90.58.0/27 -j DROP
iptables -A INPUT -s 219.90.58.64/26 -j DROP
iptables -A INPUT -s 219.90.58.128/25 -j DROP
iptables -A INPUT -s 219.90.59.0/24 -j DROP
iptables -A INPUT -s 219.90.60.0/24 -j DROP
iptables -A INPUT -s 219.90.61.0/25 -j DROP
iptables -A INPUT -s 219.90.61.176/28 -j DROP
iptables -A INPUT -s 219.90.62.32/28 -j DROP
iptables -A INPUT -s 219.90.62.56/29 -j DROP
iptables -A INPUT -s 219.90.62.64/26 -j DROP
iptables -A INPUT -s 219.90.62.128/25 -j DROP
iptables -A INPUT -s 219.90.63.0/24 -j DROP
iptables -A INPUT -s 219.91.0.0/17 -j DROP
iptables -A INPUT -s 220.128.0.0/12 -j DROP
iptables -A INPUT -s 220.157.112.0/20 -j DROP
iptables -A INPUT -s 220.158.228.0/22 -j DROP
iptables -A INPUT -s 220.228.0.0/15 -j DROP
iptables -A INPUT -s 221.120.0.0/18 -j DROP
iptables -A INPUT -s 221.120.64.0/19 -j DROP
iptables -A INPUT -s 221.169.0.0/16 -j DROP
iptables -A INPUT -s 222.156.0.0/15 -j DROP
iptables -A INPUT -s 222.250.0.0/16 -j DROP
iptables -A INPUT -s 222.251.0.0/17 -j DROP
iptables -A INPUT -s 223.22.0.0/15 -j DROP
iptables -A INPUT -s 223.26.0.0/20 -j DROP
iptables -A INPUT -s 223.26.64.0/18 -j DROP
iptables -A INPUT -s 223.27.32.0/19 -j DROP
iptables -A INPUT -s 223.136.0.0/13 -j DROP
iptables -A INPUT -s 223.165.8.0/21 -j DROP
iptables -A INPUT -s 223.200.0.0/16 -j DROP
